{
  "@context": "http://schema.org/",
  "@type": "Product",
  "name": "[EasyDNNnews:Title]",
  "image": {
		"@type": "ImageObject",
		"url": "[EasyDNNnews:OriginalArticleImage:AbsoluteUrl]"
	  },
  "description": "[EasyDNNnews:Summary:Limit:200:plaintext]",
  "brand": {
    "@type": "Thing",
    "name": "Brand Name Placeholder"
  },
  "aggregateRating": {
    "@type": "AggregateRating",
    "ratingValue": "Rating Value Placeholder",
    "reviewCount": "Rating Count Placeholder"
  },
  "offers": {
    "@type": "Offer",
    "priceCurrency": "Currency Placeholder",
    "price": "Price Placeholder",
    "priceValidUntil": "Price Valid Until Date Placeholder",
    "itemCondition": "http://schema.org/NewCondition",
    "availability": "http://schema.org/InStock",
    "seller": {
      "@type": "Organization",
      "name": "Seller Name Placeholder"
    }
  }
}