<?xml version="1.0" encoding="utf-8"?>
<!-- Generator: Adobe Illustrator 19.0.0, SVG Export Plug-In . SVG Version: 6.00 Build 0)  -->
<svg version="1.1" id="Capa_1" xmlns="http://www.w3.org/2000/svg" xmlns:xlink="http://www.w3.org/1999/xlink" x="0px" y="0px"
	 viewBox="0 0 243.2 171.5" style="enable-background:new 0 0 243.2 171.5;" xml:space="preserve">
<style type="text/css">
	.st0{opacity:0.16;}
	.st1{fill:#FFFFFF;}
</style>
<g class="st0">
	<polygon class="st1" points="100.5,71 127.9,41.9 126.9,40.9 99.5,70 	"/>
	<polygon class="st1" points="129.7,88 85,88 109.8,78.2 109.3,76.9 81.3,88 80.4,88 80.4,88.4 80,88.5 79.5,88.4 79.5,88.4 
		79.3,87.6 79.4,87.3 80.6,88 98.3,55.7 97.1,55 79.5,87 102.5,19.7 101.2,19.2 79.5,82.7 82.1,44.6 80.7,44.5 78.4,78.7 76.6,22.5 
		75.2,22.5 77,78.8 67.9,36.4 66.6,36.7 75.5,78.4 59.1,40.3 57.8,40.8 76,82.9 36.5,16.4 35.3,17.1 72.1,79 56.2,58.1 55.1,59 
		70.5,79.2 35.2,43 34.2,44 67.9,78.5 38,56.9 37.2,58 73.5,84.3 73.8,84.6 18.5,49.8 17.8,51 70.3,84 31.1,68.1 30.6,69.4 70,85.3 
		10.1,69.8 9.7,71.1 63.5,85.1 28,81.3 27.8,82.7 67.1,86.9 16.8,86.6 16.7,87.9 66.8,88.2 27.4,92.8 27.5,94.2 68.9,89.4 
		11.7,104.3 12,105.6 72.6,89.8 40.1,102.1 40.6,103.4 69.6,92.5 31.8,117.3 32.5,118.4 71.6,92.8 69.5,95.6 15.7,146.1 16.6,147.1 
		64.9,101.8 41.9,132.9 43,133.7 70.6,96.5 75.9,91.5 61.4,133.4 62.7,133.9 76.2,95 63.3,155.9 64.7,156.2 77.1,97.4 73.9,139.7 
		75.3,139.8 78.2,101.1 80.6,161.8 81.9,161.8 79.4,96.9 85.3,134 86.6,133.8 80.9,97.4 97.1,143.3 98.4,142.8 81.1,93.8 
		100.3,126.1 101.4,125.4 82.7,93.9 123.2,128 124.1,126.9 82.6,92 108.1,104.8 108.7,103.6 83.2,90.7 123.9,100.3 124.2,99 
		83.6,89.4 129.7,89.4 	"/>
	<g>
		
			<rect x="165" y="27.8" transform="matrix(0.1464 0.9892 -0.9892 0.1464 184.1276 -156.5777)" class="st1" width="35.6" height="1.2"/>
	</g>
	<g>
		<polygon class="st1" points="142.3,62 141.5,61.3 157.5,41.7 158.4,42.5 		"/>
	</g>
	<g>
		
			<rect x="221" y="13" transform="matrix(0.3748 0.9271 -0.9271 0.3748 162.281 -189.3936)" class="st1" width="1.2" height="25.3"/>
	</g>
	<path class="st1" d="M74.4,143.2c-1.3,0-2.3-1-2.4-2.3c0-0.6,0.2-1.2,0.6-1.7c0.4-0.5,1-0.8,1.7-0.8l0.1,0c1.3,0,2.3,1,2.4,2.3
		c0,0.6-0.2,1.2-0.6,1.7c-0.4,0.5-1,0.8-1.7,0.8H74.4z M85.9,136.3c-1.3,0-2.3-1-2.4-2.3c0-0.6,0.2-1.2,0.6-1.7
		c0.4-0.5,1-0.8,1.6-0.8l0.1,0c1.3,0,2.3,1,2.4,2.3c0.1,1.3-0.9,2.4-2.3,2.5L85.9,136.3z M62.1,135.7c-1.3,0-2.3-1-2.4-2.3
		c-0.1-1.3,1-2.4,2.3-2.5l0.1,0c1.3,0,2.3,1,2.4,2.3c0.1,1.3-0.9,2.4-2.3,2.5L62.1,135.7z M42.2,135.7c-1.3,0-2.3-1-2.4-2.3
		c0-0.6,0.2-1.2,0.6-1.7c0.4-0.5,1-0.8,1.6-0.8l0.1,0c1.3,0,2.3,1,2.4,2.3c0.1,1.3-0.9,2.4-2.3,2.5L42.2,135.7z M100.9,128.1
		c-1.3,0-2.3-1-2.4-2.3c-0.1-1.3,0.9-2.4,2.3-2.5h0.1c1.3,0,2.3,1,2.4,2.3c0,0.6-0.2,1.2-0.6,1.7c-0.4,0.5-1,0.8-1.6,0.8H100.9z
		 M109.5,107.8c-1.3,0-2.3-1-2.4-2.3c0-0.6,0.2-1.2,0.6-1.7c0.4-0.5,1-0.8,1.7-0.8l0.1,0c1.3,0,2.3,1,2.4,2.3
		c0.1,1.3-0.9,2.4-2.3,2.5L109.5,107.8z M40.5,105.4c-1.3,0-2.3-1-2.4-2.3c-0.1-1.3,0.9-2.4,2.3-2.5h0.1c1.3,0,2.3,1,2.4,2.3
		c0,0.6-0.2,1.3-0.6,1.7c-0.4,0.5-1,0.7-1.7,0.8H40.5z M27.4,95.9c-1.3,0-2.3-1-2.4-2.3c0-0.6,0.2-1.3,0.6-1.7
		c0.4-0.5,1-0.8,1.6-0.8l0.1,0c1.3,0,2.3,1,2.4,2.3c0,0.6-0.2,1.3-0.6,1.7c-0.4,0.5-1,0.8-1.6,0.8L27.4,95.9z M27.9,84.2
		c-1.3,0-2.3-1-2.4-2.3c0-0.6,0.2-1.3,0.6-1.7c0.4-0.5,1-0.8,1.7-0.8l0.1,0c1.3,0,2.3,1,2.4,2.3c0,0.6-0.2,1.2-0.6,1.7
		c-0.4,0.5-1,0.8-1.7,0.8L27.9,84.2z M108.8,80c-1.3,0-2.3-1-2.4-2.3c0-0.6,0.2-1.3,0.6-1.7c0.4-0.5,1-0.8,1.6-0.8l0.1,0
		c1.3,0,2.3,1,2.4,2.3c0,0.6-0.2,1.2-0.6,1.7c-0.4,0.5-1,0.8-1.6,0.8L108.8,80z M31,71c-1.3,0-2.3-1-2.4-2.3
		c-0.1-1.3,0.9-2.4,2.3-2.5l0.1,0c1.3,0,2.3,1,2.4,2.3c0.1,1.3-0.9,2.4-2.3,2.5L31,71z M55.5,60.8c-1.3,0-2.3-1-2.4-2.3
		c-0.1-1.3,0.9-2.4,2.3-2.5l0.1,0c1.3,0,2.3,1,2.4,2.3c0,0.6-0.2,1.2-0.6,1.7c-0.4,0.5-1,0.8-1.7,0.8L55.5,60.8z M37.6,59.8
		c-1.3,0-2.3-1-2.4-2.3c0-0.6,0.2-1.2,0.6-1.7c0.4-0.5,1-0.8,1.6-0.8l0.1,0c1.3,0,2.3,1,2.4,2.3c0.1,1.3-0.9,2.4-2.3,2.5L37.6,59.8z
		 M81.6,46.5c-1.3,0-2.3-1-2.4-2.3c0-0.6,0.2-1.2,0.6-1.7c0.4-0.5,1-0.8,1.6-0.8l0.1,0c1.3,0,2.3,1,2.4,2.3c0,0.6-0.2,1.2-0.6,1.7
		c-0.4,0.5-1,0.8-1.6,0.8H81.6z M58.5,42.6c-1.3,0-2.3-1-2.4-2.3c-0.1-1.3,0.9-2.4,2.3-2.5l0.1,0c1.3,0,2.3,1,2.4,2.3
		c0.1,1.3-1,2.4-2.3,2.5L58.5,42.6z"/>
	<path class="st1" d="M33.8,119c0.4-0.4,0.5-0.9,0.5-1.4c-0.1-1-0.9-1.9-1.9-1.9c0-0.1-0.1-0.2-0.1-0.3l-5-5.9
		c-0.3-0.3-0.7-0.3-1-0.1c-0.3,0.2-0.3,0.7-0.1,1l4.8,5.7c-0.1,0.1-0.1,0.1-0.2,0.2c-0.1,0.1-0.1,0.1-0.1,0.2
		c-0.1-0.1-0.1-0.1-0.2-0.1l-7.4-2.2c-0.4-0.1-0.7,0.1-0.9,0.5c-0.1,0.4,0.1,0.7,0.5,0.9l7.4,2.2c0,0,0,0,0,0l-7,2.5
		c-0.4,0.1-0.5,0.5-0.4,0.9c0.1,0.3,0.4,0.5,0.7,0.5c0.1,0,0.2,0,0.2,0l7.2-2.5l-3.5,6.7c-0.2,0.3,0,0.8,0.3,0.9
		c0.1,0.1,0.2,0.1,0.3,0.1c0.2,0,0.5-0.1,0.6-0.4l3.5-6.7c0.1,0,0.2,0,0.3,0l0.7,6.8c0,0.4,0.3,0.6,0.7,0.6c0,0,0.1,0,0.1,0
		c0.4,0,0.7-0.4,0.6-0.8l-0.8-7.1C33.7,119.1,33.8,119,33.8,119z M44.2,9.6l-5.7,5.6c-0.1-0.6-0.4-1.2-0.9-1.6l1.6-7.5
		c0.1-0.4-0.2-0.7-0.5-0.8c-0.4-0.1-0.7,0.2-0.8,0.5L36.4,13c-0.2,0-0.4-0.1-0.6-0.1l-0.2,0c-0.2,0-0.4,0-0.5,0.1L32,6
		c-0.2-0.3-0.6-0.5-0.9-0.4c-0.3,0.2-0.5,0.6-0.4,0.9l3.1,7.1c-0.1,0.1-0.1,0.1-0.2,0.2c-0.2,0.2-0.4,0.5-0.5,0.8l-7-3
		c-0.3-0.1-0.8,0-0.9,0.4c-0.1,0.3,0,0.8,0.4,0.9l7.3,3.1c0,0.3,0.1,0.5,0.2,0.8l-7.9,1.5c-0.4,0.1-0.6,0.4-0.6,0.8
		c0.1,0.3,0.3,0.6,0.7,0.6c0,0,0.1,0,0.1,0l8.6-1.6c0.5,0.3,1,0.5,1.7,0.5l0.1,0c0.8,0,1.5-0.4,2-0.9c0.1-0.2,0.3-0.3,0.4-0.5
		c0.2,0,0.3-0.1,0.5-0.2l6.5-6.4c0.3-0.3,0.3-0.7,0-1C44.9,9.4,44.5,9.4,44.2,9.6z M38.6,32.2c-0.4-0.1-0.7,0.1-0.9,0.5l-2.7,8.1
		c-0.2-0.1-0.5-0.2-0.7-0.2l-2.6-8.4c-0.1-0.4-0.5-0.6-0.9-0.5c-0.4,0.1-0.6,0.5-0.5,0.9l2.6,8.3c-0.1,0.1-0.2,0.2-0.3,0.3
		c0,0,0,0,0,0l-7.3-5.4c-0.3-0.2-0.7-0.2-1,0.1c-0.2,0.3-0.2,0.7,0.1,1l7.3,5.4c0.1,0.1,0.2,0.1,0.3,0.1c0,0,0,0.1,0,0.1l-9,1
		c-0.4,0-0.7,0.4-0.6,0.8c0,0.4,0.3,0.6,0.7,0.6h0.1l9-1c0.1,0,0.1,0,0.2-0.1c0,0,0.1,0.1,0.1,0.1l-7.1,5.9c-0.3,0.2-0.3,0.7-0.1,1
		c0.1,0.2,0.3,0.2,0.5,0.2c0.2,0,0.3-0.1,0.4-0.2l7.5-6.3c0.1,0,0.1,0,0.2,0l0.1,0c0.5,0,1-0.3,1.4-0.7c0.4-0.4,0.5-0.9,0.5-1.4
		c0,0,0-0.1,0-0.1l3-9.2C39.2,32.7,39,32.3,38.6,32.2z M74.3,33.3c-0.2-0.3-0.6-0.5-0.9-0.3l-4.2,2c-0.1-0.3-0.2-0.5-0.4-0.7
		l3.9-6.3c0.2-0.3,0.1-0.8-0.2-0.9c-0.3-0.2-0.8-0.1-0.9,0.2l-3.9,6.3c0,0-0.1,0-0.1,0c0,0,0-0.1,0-0.1L67,25.7
		c0-0.4-0.4-0.7-0.7-0.6c-0.4,0-0.7,0.4-0.6,0.7l0.6,7.7c0,0,0,0,0,0.1l-5.5-5c-0.3-0.3-0.7-0.2-1,0c-0.3,0.3-0.2,0.7,0,1l5.6,5.1
		L58,33.5c-0.4-0.1-0.7,0.2-0.8,0.6c-0.1,0.4,0.2,0.7,0.6,0.8l7.6,1.2c0.3,0.8,1,1.4,1.9,1.4l0.1,0c0.7,0,1.3-0.4,1.6-1
		c0.1,0,0.1,0,0.2,0l4.8-2.2C74.3,34,74.5,33.6,74.3,33.3z M11.1,61.3L11.1,61.3c-0.4,0-0.7,0.3-0.7,0.7l-0.1,6.5
		c-0.2-0.1-0.4-0.1-0.7-0.1l-0.1,0c-0.1,0-0.3,0-0.4,0.1l-3.5-5.7c-0.2-0.3-0.6-0.4-1-0.2c-0.3,0.2-0.4,0.6-0.2,1l3.6,5.7
		c-0.1,0.1-0.2,0.3-0.2,0.4L1,66.9c-0.4-0.1-0.8,0-0.9,0.4c-0.1,0.4,0,0.8,0.4,0.9l7.1,2.9c0,0,0,0,0.1,0l-7,2.6
		c-0.4,0.1-0.5,0.5-0.4,0.9c0.1,0.3,0.4,0.4,0.7,0.4c0.1,0,0.2,0,0.2,0l7.1-2.7L4,78.4c-0.2,0.3-0.2,0.7,0.2,1
		c0.1,0.1,0.3,0.1,0.4,0.1c0.2,0,0.4-0.1,0.6-0.3l4.5-6.3c0.1-0.2,0.2-0.4,0.1-0.6c0.5,0,1-0.3,1.4-0.6c0.4-0.4,0.5-0.9,0.5-1.4
		c0-0.1,0-0.1,0-0.2c0.1-0.1,0.1-0.2,0.1-0.3l0.2-7.7C11.7,61.7,11.4,61.3,11.1,61.3z M105.9,51.3l-6.4,3.2c0-0.1-0.1-0.2-0.2-0.3
		l3.4-6.6c0.2-0.3,0.1-0.8-0.3-0.9c-0.3-0.2-0.8,0-0.9,0.3l-3.4,6.4c-0.1,0-0.1,0-0.2,0c-0.1,0-0.1,0-0.2,0L96,46.7
		c-0.1-0.4-0.5-0.6-0.8-0.5c-0.4,0.1-0.6,0.5-0.5,0.8l1.8,6.7c-0.1,0.1-0.2,0.2-0.3,0.3l-2.8-2.4c-0.3-0.3-0.7-0.2-1,0.1
		c-0.3,0.3-0.2,0.7,0.1,1l3.2,2.7c0,0.9,0.7,1.7,1.7,1.9c0.1,0,0.2,0,0.3,0c0.1,0.1,0.2,0.1,0.3,0.1l7.5,1.6c0,0,0.1,0,0.1,0
		c0.3,0,0.7-0.2,0.7-0.5c0.1-0.4-0.2-0.7-0.5-0.8l-6.3-1.3c0.1-0.1,0.1-0.2,0.1-0.3c0,0,0,0,0,0l6.9-3.4c0.3-0.2,0.5-0.6,0.3-0.9
		C106.6,51.3,106.2,51.2,105.9,51.3z M242.8,18l-7,1.5c-0.1-0.3-0.4-0.6-0.6-0.9l4-5.6c0.1-0.2,0.1-0.4-0.1-0.5
		c-0.2-0.1-0.4-0.1-0.5,0.1l-4,5.6c-0.3-0.1-0.7-0.2-1-0.2l0.2-6.8c0-0.2-0.2-0.4-0.4-0.4h0c-0.2,0-0.4,0.2-0.4,0.4l-0.2,7
		c-0.6,0.2-1.1,0.5-1.4,1c-0.8,1.1-0.5,2.7,0.7,3.5c0.1,0.1,0.2,0.1,0.3,0.2c0.2,0.1,0.5,0.2,0.8,0.2l3.8,6c0.1,0.1,0.2,0.2,0.3,0.2
		c0.1,0,0.1,0,0.2-0.1c0.2-0.1,0.2-0.3,0.1-0.5L234,23c0.6-0.1,1.1-0.5,1.5-0.9l6.2,2.8c0,0,0.1,0,0.1,0c0.1,0,0.3-0.1,0.3-0.2
		c0.1-0.2,0-0.4-0.2-0.5l-6.1-2.7c0.1-0.4,0.2-0.8,0.1-1.2l6.9-1.5c0.2,0,0.3-0.2,0.3-0.4C243.2,18.1,243,18,242.8,18z M167.1,40.8
		l-6.7,0.5c-0.1-0.4-0.2-0.8-0.4-1.1l5.4-4.6c0.2-0.1,0.2-0.4,0-0.5c-0.1-0.2-0.4-0.2-0.5,0l-5.4,4.6c-0.3-0.2-0.6-0.4-1-0.4
		l0.8-6.8c0-0.2-0.1-0.4-0.3-0.4c-0.2,0-0.4,0.1-0.4,0.3l-0.8,6.8c-0.4,0-0.7,0.1-1,0.3l-3.1-6.1c-0.1-0.2-0.3-0.3-0.5-0.2
		c-0.2,0.1-0.3,0.3-0.2,0.5l3.2,6.2c-0.4,0.4-0.7,0.9-0.7,1.5c-0.1,1.4,0.9,2.6,2.3,2.8c0.1,0,0.3,0,0.4,0c0.3,0,0.5-0.1,0.8-0.2
		l6.2,3.4c0.1,0,0.1,0,0.2,0c0.1,0,0.3-0.1,0.3-0.2c0.1-0.2,0-0.4-0.1-0.5l-5.9-3.2c0.4-0.4,0.8-0.9,0.8-1.5l6.7-0.5
		c0.2,0,0.4-0.2,0.3-0.4C167.5,40.9,167.3,40.7,167.1,40.8z M138.2,40.1l-8.9,0.2c0-0.1-0.1-0.2-0.1-0.3c0.1,0,0.2-0.1,0.2-0.1
		l7.2-5.5c0.3-0.2,0.4-0.7,0.1-1c-0.2-0.3-0.7-0.4-1-0.1l-7.2,5.5c-0.1,0.1-0.2,0.2-0.2,0.3c0,0-0.1,0-0.1,0c0,0,0,0,0,0l1.5-9
		c0.1-0.4-0.2-0.7-0.6-0.8c-0.4-0.1-0.7,0.2-0.8,0.6l-1.5,9c0,0,0,0.1,0,0.1c0,0-0.1,0-0.1,0l-3.7-8.3c-0.2-0.3-0.6-0.5-0.9-0.3
		c-0.3,0.2-0.5,0.6-0.3,0.9l3.7,8.3c0,0.1,0.1,0.1,0.2,0.2c-0.2,0.2-0.3,0.5-0.3,0.8c-0.2,1.1,0.6,2.1,1.7,2.3c0.1,0,0.1,0,0.2,0
		c0,0.3,0.1,0.5,0.3,0.7l7.7,4.8c0.1,0.1,0.2,0.1,0.4,0.1c0.2,0,0.5-0.1,0.6-0.3c0.2-0.3,0.1-0.7-0.2-0.9l-7.5-4.7
		c0.3-0.2,0.5-0.4,0.6-0.7l9.1-0.2c0.4,0,0.7-0.3,0.7-0.7C138.9,40.4,138.6,40.1,138.2,40.1z M134.7,101.4l-8.7-2.5
		c-0.1,0-0.2,0-0.3,0c0,0,0-0.1,0-0.1l5.5-2.8c0.3-0.2,0.5-0.6,0.3-0.9c-0.2-0.3-0.6-0.5-0.9-0.3l-5.5,2.8c0,0,0,0,0,0
		c-0.1-0.1-0.2-0.2-0.3-0.2l2.4-3.7c0.2-0.3,0.1-0.8-0.3-0.9c-0.3-0.2-0.8-0.1-0.9,0.3l-2.8,4.3c-0.8,0.3-1.3,1.1-1.3,1.9
		c0,0.3,0.1,0.6,0.3,0.9c0,0.1,0,0.1,0,0.2l0.4,9.6c0,0.4,0.3,0.6,0.7,0.6h0.1c0.4,0,0.7-0.4,0.6-0.7l-0.3-8.7c0.1,0,0.2,0,0.3,0
		h0.1c0.1,0,0.1,0,0.2,0l5.5,7.1c0.1,0.2,0.3,0.3,0.6,0.3c0.1,0,0.3,0,0.4-0.1c0.3-0.2,0.4-0.7,0.1-1l-5.4-7
		c0.1-0.1,0.1-0.2,0.2-0.3c0.1,0,0.1,0.1,0.2,0.1l8.7,2.5c0.1,0,0.1,0,0.2,0c0.3,0,0.6-0.2,0.7-0.5
		C135.3,101.9,135.1,101.5,134.7,101.4z M90.4,162.1l-7.5-1.4c-0.4-0.5-0.9-0.8-1.6-0.8h-0.1c-0.5,0-1,0.3-1.4,0.7
		c-0.1,0.1-0.1,0.2-0.2,0.3l-6.9,3c-0.4,0.2-0.5,0.6-0.4,0.9c0.1,0.2,0.3,0.4,0.5,0.4c0.1,0,0.3,0,0.4,0l6.1-2.7
		c0,0.1,0.1,0.2,0.1,0.3l-4,6.1c-0.2,0.3-0.1,0.7,0.2,1c0.1,0.1,0.2,0.1,0.3,0.1c0.3,0.1,0.5-0.1,0.7-0.3l3.9-5.9c0,0,0.1,0,0.2,0.1
		l0.3,7.1c0,0.3,0.3,0.6,0.6,0.7c0,0,0.1,0,0.2,0c0.4,0,0.7-0.3,0.7-0.7l-0.3-7.1c0.1,0,0.1-0.1,0.2-0.1l5.3,5.2
		c0.1,0.1,0.2,0.2,0.4,0.2c0.2,0,0.5,0,0.6-0.2c0.3-0.3,0.3-0.7,0-1l-5.3-5.3c0-0.1,0.1-0.2,0.1-0.4l6.9,1.3l0,0
		c0.4,0.1,0.7-0.2,0.8-0.6C91,162.5,90.8,162.2,90.4,162.1z"/>
	<path class="st1" d="M10.9,107.1L8,115.2c-0.1,0.4,0.1,0.8,0.4,0.9c0.1,0,0.2,0,0.2,0c0.3,0,0.6-0.2,0.7-0.5l2.9-8.2
		c0,0,0.1,0,0.1,0l0.1,0c0.1,0,0.1,0,0.2,0l2.1,8.2c0.1,0.3,0.4,0.5,0.7,0.5c0.1,0,0.1,0,0.2,0c0.4-0.1,0.6-0.5,0.5-0.8L14,107
		c0.2-0.1,0.3-0.3,0.5-0.4c0.5-0.6,0.8-1.3,0.7-2.1c-0.1-1.5-1.3-2.7-2.8-2.7l-0.2,0c-0.4,0-0.8,0.2-1.2,0.4l-5.9-5.3
		c-0.3-0.3-0.7-0.2-1,0.1c-0.2,0.3-0.2,0.7,0.1,1l5.8,5.2c-0.1,0.2-0.2,0.4-0.3,0.6l-8.3-1.2c-0.4-0.1-0.7,0.2-0.8,0.6
		c-0.1,0.4,0.2,0.7,0.6,0.8l8.4,1.2c0,0.2,0.1,0.4,0.1,0.5l-7.4,3.9c-0.3,0.2-0.5,0.6-0.3,0.9c0.1,0.2,0.4,0.4,0.6,0.4
		c0.1,0,0.2,0,0.3-0.1l7.5-4C10.6,106.9,10.8,107,10.9,107.1z M18.8,147.8c0.9-0.5,1.5-1.5,1.4-2.6c-0.1-1.5-1.3-2.7-2.8-2.7l-0.1,0
		c-0.1,0-0.1,0-0.2,0l-6.5-5.8c-0.3-0.3-0.7-0.2-1,0.1c-0.3,0.3-0.2,0.7,0.1,1l6,5.4c-0.1,0.1-0.2,0.2-0.3,0.3
		c-0.2,0.2-0.3,0.5-0.5,0.7l-8.4-1.2c-0.4-0.1-0.7,0.2-0.8,0.6c-0.1,0.4,0.2,0.7,0.6,0.8l8.3,1.2c0,0.2,0,0.4,0.1,0.6l-7.9,4.1
		c-0.3,0.2-0.5,0.6-0.3,0.9c0.1,0.2,0.4,0.4,0.6,0.4c0.1,0,0.2,0,0.3-0.1l7.9-4.1c0.1,0.1,0.2,0.2,0.3,0.3l-2.8,8
		c-0.1,0.4,0.1,0.8,0.4,0.9c0.1,0,0.2,0,0.2,0c0.3,0,0.6-0.2,0.7-0.5l2.8-7.9c0.2,0,0.3,0,0.5,0h0.1l2,7.9c0.1,0.3,0.4,0.5,0.7,0.5
		c0.1,0,0.1,0,0.2,0c0.4-0.1,0.6-0.5,0.5-0.8L18.8,147.8z M21.4,38.7c-0.4-0.1-0.7,0.2-0.8,0.5l-1.8,8c-0.3-0.2-0.7-0.2-1.1-0.2
		l-0.1,0l-3.1-8c-0.1-0.4-0.5-0.5-0.9-0.4c-0.4,0.1-0.5,0.5-0.4,0.9l3,7.9c-0.2,0.1-0.3,0.2-0.4,0.3l-7.5-4.9
		c-0.3-0.2-0.7-0.1-1,0.2c-0.2,0.3-0.1,0.7,0.2,1l7.4,4.8C15,49,15,49.2,15,49.3l-8.3,1.4c-0.4,0.1-0.6,0.4-0.6,0.8
		c0.1,0.3,0.3,0.6,0.7,0.6c0,0,0.1,0,0.1,0l8.1-1.4c0.1,0.2,0.2,0.4,0.3,0.6l-5.8,5.5c-0.3,0.3-0.3,0.7,0,1c0.1,0.1,0.3,0.2,0.5,0.2
		c0.2,0,0.3-0.1,0.5-0.2l5.9-5.6c0.4,0.3,0.9,0.4,1.5,0.4l0.2,0c0.8,0,1.5-0.4,2-0.9c0.5-0.6,0.8-1.3,0.7-2.1c0-0.6-0.2-1.1-0.5-1.5
		l1.9-8.7C22.1,39.1,21.8,38.8,21.4,38.7z M141.2,83.7l-8.6,3c0,0-0.1,0-0.1,0.1c0-0.1-0.1-0.1-0.1-0.2l4.2-7.8
		c0.2-0.3,0.1-0.8-0.3-0.9c-0.3-0.2-0.8-0.1-0.9,0.3l-4,7.6c-0.2-0.1-0.3-0.1-0.5-0.2l-0.8-8.3c0-0.4-0.4-0.7-0.8-0.6
		c-0.4,0-0.7,0.4-0.6,0.8l0.8,8c-1.8,0.2-3.2,1.7-3.1,3.6c0.1,1.8,1.6,3.2,3.4,3.2c0,0,0.1,0,0.2,0c0.4,0,0.8-0.1,1.2-0.3l4.9,5.9
		c0.1,0.2,0.3,0.2,0.5,0.2c0.2,0,0.3-0.1,0.4-0.2c0.3-0.2,0.3-0.7,0.1-1l-4.8-5.8c0.3-0.4,0.6-0.8,0.8-1.3l7.9,2.4
		c0.1,0,0.1,0,0.2,0c0.3,0,0.6-0.2,0.7-0.5c0.1-0.4-0.1-0.8-0.5-0.9l-8.2-2.5c0-0.2,0-0.3-0.1-0.4l8.6-3c0.4-0.1,0.6-0.5,0.4-0.9
		C142,83.8,141.6,83.6,141.2,83.7z M189.1,8.1l-6.6,2.4c0-0.6-0.2-1.2-0.6-1.7l4.3-5.7c0.1-0.2,0.1-0.4-0.1-0.5
		c-0.2-0.1-0.4-0.1-0.5,0.1l-4.2,5.6c-0.3-0.2-0.7-0.4-1.2-0.4l0.1-7.5c0-0.2-0.2-0.4-0.4-0.4c-0.2,0-0.4,0.2-0.4,0.4l-0.1,7.5
		c-0.4,0.1-0.7,0.2-1,0.4L173.5,3c-0.1-0.2-0.4-0.2-0.5,0c-0.2,0.1-0.2,0.4,0,0.5l4.8,5.4c-0.2,0.3-0.4,0.6-0.5,1l-7-1.8
		c-0.2-0.1-0.4,0.1-0.5,0.3c-0.1,0.2,0.1,0.4,0.3,0.5l7.1,1.8c0,0.6,0.3,1.2,0.7,1.7c1,1.1,2.7,1.1,3.7,0.1c0.1-0.1,0.2-0.2,0.3-0.3
		c0.2-0.2,0.3-0.5,0.4-0.7l7-2.5c0.2-0.1,0.3-0.3,0.2-0.5C189.5,8.1,189.3,8,189.1,8.1z M74.7,157l-7.2-2.3c0-0.1,0-0.3,0-0.4
		c-0.1-1.5-1.3-2.7-2.8-2.7h-0.2c-0.8,0-1.5,0.4-2,0.9c-0.2,0.2-0.3,0.4-0.4,0.6c-0.1,0-0.2,0-0.3,0l-8.7,2.6
		c-0.4,0.1-0.6,0.5-0.5,0.9c0.1,0.3,0.4,0.5,0.7,0.5c0.1,0,0.1,0,0.2,0l8.3-2.5c0,0.3,0.1,0.7,0.2,1l-5.8,6.9
		c-0.2,0.3-0.2,0.7,0.1,1c0.1,0.1,0.3,0.2,0.4,0.2c0.2,0,0.4-0.1,0.5-0.2l5.7-6.7c0.1,0.1,0.2,0.2,0.3,0.2c0,0,0,0,0,0l-0.7,9.1
		c0,0.4,0.3,0.7,0.6,0.7c0,0,0,0,0.1,0c0.4,0,0.7-0.3,0.7-0.6l0.6-8.8c0,0,0.1,0,0.1,0l0.1,0c0.1,0,0.2,0,0.3,0l5.2,6.5
		c0.1,0.2,0.3,0.3,0.5,0.3c0.2,0,0.3-0.1,0.4-0.2c0.3-0.2,0.3-0.7,0.1-1l-5-6.2c0.1-0.1,0.2-0.2,0.4-0.3c0.1-0.1,0.2-0.2,0.2-0.3
		l7.3,2.3c0.1,0,0.1,0,0.2,0c0.3,0,0.6-0.2,0.7-0.5C75.2,157.5,75,157.2,74.7,157z M5,87.7l8.6,0.1c0.1,0.2,0.1,0.4,0.3,0.6
		l-6.1,5.6c-0.3,0.3-0.3,0.7,0,1C7.9,95,8,95.1,8.2,95.1c0.2,0,0.3-0.1,0.5-0.2l6.1-5.6c0.2,0.1,0.4,0.2,0.6,0.3l-1.9,7.9
		c-0.1,0.4,0.1,0.7,0.5,0.8c0.1,0,0.1,0,0.2,0c0.3,0,0.6-0.2,0.7-0.5l2-8.1c0.6-0.1,1.2-0.4,1.7-0.9c0.5-0.6,0.8-1.3,0.7-2.1
		c-0.1-1-0.6-1.9-1.5-2.3l-3.1-8.3c-0.1-0.4-0.5-0.5-0.9-0.4c-0.4,0.1-0.5,0.5-0.4,0.9l2.8,7.5c-0.5,0-1,0.2-1.4,0.5l-6.6-4.9
		c-0.3-0.2-0.7-0.2-1,0.1c-0.2,0.3-0.2,0.7,0.1,1l6.5,4.8c-0.1,0.2-0.2,0.5-0.3,0.7L5,86.3h0c-0.4,0-0.7,0.3-0.7,0.7
		C4.3,87.4,4.6,87.7,5,87.7z M134.4,124.9l-8.7,1.6c0-0.1-0.1-0.2-0.1-0.3l6.1-6c0.3-0.3,0.3-0.7,0-1c-0.3-0.3-0.7-0.3-1,0l-6.1,6
		c-0.5-0.3-1-0.6-1.7-0.6l-0.1,0c-0.8,0-1.5,0.4-2,0.9c-0.5,0.6-0.8,1.3-0.7,2.1c0,0.8,0.4,1.5,1,2l-1.6,8.2
		c-0.1,0.4,0.2,0.7,0.5,0.8c0,0,0.1,0,0.1,0c0.3,0,0.6-0.2,0.7-0.6l1.6-7.8c0.2,0,0.4,0.1,0.6,0.1l0.1,0c0.2,0,0.4,0,0.6-0.1
		l3.2,7.9c0.1,0.3,0.4,0.4,0.6,0.4c0.1,0,0.2,0,0.3,0c0.4-0.1,0.5-0.5,0.4-0.9l-3.2-8.1c0.1-0.1,0.1-0.1,0.2-0.2c0,0,0-0.1,0.1-0.1
		c0,0,0,0.1,0.1,0.1l7.7,4.9c0.1,0.1,0.2,0.1,0.4,0.1c0.2,0,0.5-0.1,0.6-0.3c0.2-0.3,0.1-0.7-0.2-0.9l-7.7-4.9
		c-0.1,0-0.2-0.1-0.2-0.1c0,0,0-0.1,0-0.1l8.8-1.7c0.4-0.1,0.6-0.4,0.6-0.8C135.1,125.1,134.8,124.8,134.4,124.9z M83.6,13.9
		l-5.5,5.4c-0.3-0.4-0.7-0.7-1.2-0.9l1.7-8c0.1-0.4-0.2-0.7-0.5-0.8c-0.4-0.1-0.7,0.2-0.8,0.5l-1.7,8c-0.2,0-0.4,0.1-0.7,0.1l-3.5-8
		c-0.2-0.4-0.6-0.5-0.9-0.4c-0.4,0.2-0.5,0.6-0.4,0.9l3.6,8.2c0,0,0,0-0.1,0c-0.1,0.1-0.1,0.2-0.2,0.2l-7.9-3.4
		c-0.3-0.2-0.8,0-0.9,0.4c-0.1,0.3,0,0.8,0.4,0.9l7.9,3.4c0,0.1,0,0.3,0,0.4l-8.4,1.5c-0.4,0.1-0.6,0.4-0.6,0.8
		c0.1,0.3,0.4,0.6,0.7,0.6c0,0,0.1,0,0.1,0l8.5-1.6c0.5,0.9,1.4,1.5,2.5,1.5l0.1,0c1.6-0.1,2.8-1.4,2.7-3c0,0,0-0.1,0-0.1l5.9-5.9
		c0.3-0.3,0.3-0.7,0-1C84.3,13.6,83.9,13.6,83.6,13.9z M111.5,16.5l-7.3,3c-0.1-0.5-0.4-0.9-0.7-1.2l4.7-6.9c0.2-0.3,0.1-0.7-0.2-1
		c-0.3-0.2-0.7-0.1-1,0.2l-4.8,7c-0.2-0.1-0.3-0.1-0.5-0.1l-0.2-8.9c0-0.4-0.3-0.7-0.7-0.7c-0.4,0-0.7,0.3-0.7,0.7l0.2,9.1
		c-0.1,0-0.2,0.1-0.3,0.1l-6.1-6.2c-0.3-0.3-0.7-0.3-1,0c-0.3,0.3-0.3,0.7,0,1l6,6.2C99,18.8,99,19,98.9,19.1l-8.3-1.7
		c-0.4-0.1-0.7,0.2-0.8,0.5c-0.1,0.4,0.2,0.7,0.5,0.8l8.3,1.7c0,0,0,0,0,0c0.1,1.5,1.3,2.7,2.8,2.7l0.1,0c0.8,0,1.5-0.4,2-0.9
		c0.3-0.3,0.5-0.8,0.6-1.2l7.8-3.2c0.4-0.1,0.5-0.5,0.4-0.9C112.3,16.6,111.9,16.4,111.5,16.5z M108.5,139.8l-9,1.1c0,0-0.1,0-0.1,0
		c-0.4-0.5-0.9-0.8-1.6-0.8h-0.1c-0.8,0-1.5,0.6-1.7,1.3l-7.7,6.3c-0.3,0.3-0.3,0.7-0.1,1c0.1,0.2,0.3,0.2,0.5,0.2
		c0.2,0,0.3-0.1,0.5-0.2L96,143c0.1,0.1,0.1,0.2,0.2,0.3l-2.4,8.5c-0.1,0.4,0.1,0.8,0.5,0.9c0.1,0,0.1,0,0.2,0
		c0.3,0,0.6-0.2,0.7-0.5l2.3-8.2c0.1,0,0.1,0,0.2,0l3,8.1c0.1,0.3,0.4,0.5,0.6,0.5c0.1,0,0.2,0,0.2,0c0.4-0.1,0.5-0.5,0.4-0.9
		l-3-8.1c0,0,0,0,0,0c0,0,0,0,0.1,0.1l8.1,4.1c0.1,0.1,0.2,0.1,0.3,0.1c0.3,0,0.5-0.1,0.6-0.4c0.2-0.3,0-0.8-0.3-0.9l-8.1-4.1
		c0,0,0,0,0,0c0,0,0-0.1,0-0.1l8.9-1.1c0.4,0,0.7-0.4,0.6-0.8C109.2,140,108.8,139.7,108.5,139.8z"/>
</g>
</svg>
