<?xml version="1.0" encoding="utf-8"?>
<!-- Generator: Adobe Illustrator 19.0.0, SVG Export Plug-In . SVG Version: 6.00 Build 0)  -->
<svg version="1.1" id="Capa_1" xmlns="http://www.w3.org/2000/svg" xmlns:xlink="http://www.w3.org/1999/xlink" x="0px" y="0px"
	 viewBox="0 0 16 16" style="enable-background:new 0 0 16 16;" xml:space="preserve">
<style type="text/css">
	.st0{fill:#606060;}
</style>
<g>
	<g id="XMLID_24_">
		<path id="XMLID_26_" class="st0" d="M15.4,10.9c-0.3,0-0.6,0.3-0.6,0.6v2.9c0,0.3-0.3,0.6-0.6,0.6H1.7c-0.3,0-0.6-0.3-0.6-0.6
			v-2.9c0-0.3-0.3-0.6-0.6-0.6S0,11.1,0,11.4v2.9C0,15.2,0.8,16,1.7,16h12.6c0.9,0,1.7-0.8,1.7-1.7v-2.9
			C16,11.1,15.7,10.9,15.4,10.9z"/>
		<path id="XMLID_25_" class="st0" d="M7.6,13c0.2,0.2,0.6,0.2,0.8,0l4-4c0.2-0.2,0.2-0.6-0.1-0.8c-0.2-0.2-0.5-0.2-0.7,0l-3,3V0.6
			C8.6,0.3,8.3,0,8,0C7.7,0,7.4,0.3,7.4,0.6v10.6l-3-3C4.2,8,3.8,8,3.6,8.2C3.4,8.4,3.4,8.8,3.6,9L7.6,13z"/>
	</g>
</g>
</svg>
