<?xml version="1.0" encoding="utf-8"?>
<!-- Generator: Adobe Illustrator 19.0.0, SVG Export Plug-In . SVG Version: 6.00 Build 0)  -->
<svg version="1.1" id="Capa_1" xmlns="http://www.w3.org/2000/svg" xmlns:xlink="http://www.w3.org/1999/xlink" x="0px" y="0px"
	 viewBox="0 0 38 36.5" style="enable-background:new 0 0 38 36.5;" xml:space="preserve">
<style type="text/css">
	.st0{fill:#FFFFFF;}
</style>
<g>
	<path class="st0" d="M38,24.7h-4.3V0H4.3v24.7H0v11.8h38V24.7z M6.2,1.9h25.7v22.8H29l-2.4,3.3H11.4L9,24.7H6.2V1.9z M36.1,34.6
		H1.9v-8h6.2l2.4,3.3h17.1l2.4-3.3h6.2V34.6z"/>
	<rect x="14.2" y="12.8" class="st0" width="13.8" height="1.9"/>
	<rect x="10" y="12.8" class="st0" width="2.3" height="1.9"/>
	<rect x="14.2" y="6.6" class="st0" width="13.8" height="1.9"/>
	<rect x="10" y="6.6" class="st0" width="2.3" height="1.9"/>
	<rect x="14.2" y="19" class="st0" width="13.8" height="1.9"/>
	<rect x="10" y="19" class="st0" width="2.3" height="1.9"/>
</g>
</svg>
