<?xml version="1.0" encoding="utf-8"?>
<!-- Generator: Adobe Illustrator 19.0.0, SVG Export Plug-In . SVG Version: 6.00 Build 0)  -->
<svg version="1.1" id="Capa_1" xmlns="http://www.w3.org/2000/svg" xmlns:xlink="http://www.w3.org/1999/xlink" x="0px" y="0px"
	 viewBox="0 0 53.8 26.1" style="enable-background:new 0 0 53.8 26.1;" xml:space="preserve">
<style type="text/css">
	.st0{fill:#FFFFFF;}
</style>
<g>
	<path class="st0" d="M40.6,26.1c-0.1,0-0.2,0-0.3-0.1c-0.1-0.1-0.1-0.4,0-0.5L52.7,13L40.3,0.6c-0.1-0.1-0.1-0.4,0-0.5
		c0.1-0.1,0.4-0.1,0.5,0L53.8,13L40.9,26C40.8,26,40.7,26.1,40.6,26.1z"/>
	<path class="st0" d="M53.3,13.4H0.4C0.2,13.4,0,13.2,0,13s0.2-0.4,0.4-0.4h52.9c0.2,0,0.4,0.2,0.4,0.4S53.5,13.4,53.3,13.4z"/>
</g>
</svg>
