<?xml version="1.0" encoding="utf-8"?>
<!-- Generator: Adobe Illustrator 19.0.0, SVG Export Plug-In . SVG Version: 6.00 Build 0)  -->
<svg version="1.1" id="Capa_1" xmlns="http://www.w3.org/2000/svg" xmlns:xlink="http://www.w3.org/1999/xlink" x="0px" y="0px"
	 viewBox="0 0 30 35.5" style="enable-background:new 0 0 30 35.5;" xml:space="preserve">
<style type="text/css">
	.st0{fill:#FFFFFF;}
</style>
<g>
	<path class="st0" d="M1.4,1.4v28.2H24V1.4H1.4z M0.7,0h24c0.4,0,0.7,0.3,0.7,0.7v29.5c0,0.4-0.3,0.7-0.7,0.7h-24
		c-0.4,0-0.7-0.3-0.7-0.7V0.7C0,0.3,0.3,0,0.7,0z"/>
	<path class="st0" d="M26.3,31.8V3c0-0.4,0.3-0.7,0.7-0.7s0.7,0.3,0.7,0.7v29.5c0,0.4-0.3,0.7-0.7,0.7H3c-0.4,0-0.7-0.3-0.7-0.7
		c0-0.4,0.3-0.7,0.7-0.7H26.3z"/>
	<path class="st0" d="M28.6,34.2V5.3c0-0.4,0.3-0.7,0.7-0.7c0.4,0,0.7,0.3,0.7,0.7v29.5c0,0.4-0.3,0.7-0.7,0.7h-24
		c-0.4,0-0.7-0.3-0.7-0.7c0-0.4,0.3-0.7,0.7-0.7H28.6z"/>
	<path class="st0" d="M4.2,12.9c-0.3,0-0.5-0.2-0.5-0.5c0-0.3,0.2-0.5,0.5-0.5h9.7c0.3,0,0.5,0.2,0.5,0.5c0,0.3-0.2,0.5-0.5,0.5H4.2
		z"/>
	<path class="st0" d="M4.2,9.2C3.9,9.2,3.7,9,3.7,8.8c0-0.3,0.2-0.5,0.5-0.5H9c0.3,0,0.5,0.2,0.5,0.5C9.5,9,9.3,9.2,9,9.2H4.2z"/>
	<path class="st0" d="M4.2,15.2c-0.3,0-0.5-0.2-0.5-0.5c0-0.3,0.2-0.5,0.5-0.5h16.4c0.3,0,0.5,0.2,0.5,0.5c0,0.3-0.2,0.5-0.5,0.5
		H4.2z"/>
	<path class="st0" d="M4.2,17.5c-0.3,0-0.5-0.2-0.5-0.5s0.2-0.5,0.5-0.5h16.4c0.3,0,0.5,0.2,0.5,0.5s-0.2,0.5-0.5,0.5H4.2z"/>
	<path class="st0" d="M4.2,19.8c-0.3,0-0.5-0.2-0.5-0.5s0.2-0.5,0.5-0.5h9.5c0.3,0,0.5,0.2,0.5,0.5s-0.2,0.5-0.5,0.5H4.2z"/>
	<path class="st0" d="M20.6,26.3c0.3,0,0.5,0.2,0.5,0.5c0,0.3-0.2,0.5-0.5,0.5h-7c-0.3,0-0.5-0.2-0.5-0.5c0-0.3,0.2-0.5,0.5-0.5
		H20.6z"/>
	<path class="st0" d="M18.7,12c0.3,0,0.5,0.2,0.5,0.5c0,0.3-0.2,0.5-0.5,0.5h-2.8c-0.3,0-0.5-0.2-0.5-0.5c0-0.3,0.2-0.5,0.5-0.5
		H18.7z"/>
</g>
</svg>
