<?xml version="1.0" encoding="utf-8"?>
<!-- Generator: Adobe Illustrator 19.0.1, SVG Export Plug-In . SVG Version: 6.00 Build 0)  -->
<svg version="1.1" id="Capa_1" xmlns="http://www.w3.org/2000/svg" xmlns:xlink="http://www.w3.org/1999/xlink" x="0px" y="0px"
	 viewBox="0 0 57 62.2" style="enable-background:new 0 0 57 62.2;" xml:space="preserve">
<style type="text/css">
	.st0{fill:#818080;}
	.st1{fill:#62A472;}
</style>
<g>
	<path class="st0" d="M54.4,20.7c1.4,0,2.6-1.2,2.6-2.6v-7.8c0-1.4-1.2-2.6-2.6-2.6h-3.9V3.9c0-2.1-1.7-3.9-3.9-3.9H14.3H5.2H3.9
		C1.7,0,0,1.7,0,3.9v54.4c0,2.1,1.7,3.9,3.9,3.9h1.3h9.1h32.4c2.1,0,3.9-1.7,3.9-3.9v-3.9h3.9c1.4,0,2.6-1.2,2.6-2.6V44
		c0-1.4-1.2-2.6-2.6-2.6h-3.9v-3.9h3.9c1.4,0,2.6-1.2,2.6-2.6v-7.8c0-1.4-1.2-2.6-2.6-2.6h-3.9v-3.9H54.4z M54.4,10.4l0,7.8h-3.9
		v-7.8H54.4z M3.9,59.6c-0.7,0-1.3-0.6-1.3-1.3V3.9c0-0.7,0.6-1.3,1.3-1.3h1.3v57H3.9z M7.8,59.6v-57h3.9v57H7.8z M54.4,44l0,7.8
		h-3.9V44H54.4z M54.4,27.2l0,7.8h-3.9v-7.8H54.4z M47.9,24.6v13v3.9v13v3.9c0,0.7-0.6,1.3-1.3,1.3H14.3v-57h32.4
		c0.7,0,1.3,0.6,1.3,1.3v3.9v13V24.6z"/>
	<path class="st1" d="M36.5,29.9c-0.5-0.2-1-0.1-1.4,0.2c-2.3,2-5.7,2-8,0c-0.4-0.3-0.9-0.4-1.4-0.2c-3.8,1.7-6.9,6.2-7.5,11
		c-0.1,0.8,0.1,1.6,0.6,2.2c0.5,0.6,1.3,1,2.1,1h20.4c0.8,0,1.6-0.4,2.1-1c0.5-0.6,0.8-1.4,0.6-2.2C43.3,36.1,40.2,31.6,36.5,29.9z
		 M41.3,41.5H20.9c-0.1,0-0.1,0-0.2-0.2c0.5-3.6,2.7-7.1,5.4-8.6c2.9,2.1,7.1,2.1,10,0c2.6,1.6,4.8,5.1,5.3,8.8
		C41.4,41.4,41.3,41.5,41.3,41.5z"/>
	<path class="st1" d="M25.9,23.3c0,2.9,2.3,5.2,5.2,5.2s5.2-2.3,5.2-5.2s-2.3-5.2-5.2-5.2S25.9,20.5,25.9,23.3z M33.7,23.3
		c0,1.4-1.2,2.6-2.6,2.6s-2.6-1.2-2.6-2.6s1.2-2.6,2.6-2.6S33.7,21.9,33.7,23.3z"/>
	<path class="st0" d="M22,9.1h18.1c0.7,0,1.3-0.6,1.3-1.3s-0.6-1.3-1.3-1.3H22c-0.7,0-1.3,0.6-1.3,1.3S21.3,9.1,22,9.1z"/>
	<path class="st0" d="M22,15.5h18.1c0.7,0,1.3-0.6,1.3-1.3S40.9,13,40.2,13H22c-0.7,0-1.3,0.6-1.3,1.3S21.3,15.5,22,15.5z"/>
	<path class="st0" d="M40.2,50.5H22c-0.7,0-1.3,0.6-1.3,1.3c0,0.7,0.6,1.3,1.3,1.3h18.1c0.7,0,1.3-0.6,1.3-1.3
		C41.5,51.1,40.9,50.5,40.2,50.5z"/>
</g>
</svg>
