<?xml version="1.0" encoding="utf-8"?>
<!-- Generator: Adobe Illustrator 19.0.0, SVG Export Plug-In . SVG Version: 6.00 Build 0)  -->
<svg version="1.1" id="Capa_1" xmlns="http://www.w3.org/2000/svg" xmlns:xlink="http://www.w3.org/1999/xlink" x="0px" y="0px"
	 viewBox="0 0 255 109.1" enable-background="new 0 0 255 109.1" xml:space="preserve">
<g>
	<g>
		<path fill="#526D61" d="M85.2,100c0.1-0.6,0.2-1.2,0.3-1.7c0.1-0.4,0.1-0.8,0.1-1.2v-0.3c0-0.1,0-0.2,0-0.3c0.3-0.1,0.7-0.1,1-0.1
			c0.3,0,0.7,0,1,0.1c0,0.1,0,0.2,0.1,0.3c0,0.2,0,0.3,0,0.5c0,0.1,0,0.2,0,0.3c0,0.1,0,0.2,0,0.3c0.2-0.5,0.6-0.8,1.1-1.1
			c0.5-0.3,1-0.5,1.6-0.4c0.6,0,1.2,0.2,1.6,0.7c0.4,0.6,0.6,1.4,0.6,2.1c0,0.6-0.1,1.3-0.3,1.9c-0.2,0.6-0.5,1.2-0.9,1.7
			c-0.5,0.5-1.1,1-1.7,1.3c-0.8,0.3-1.6,0.5-2.4,0.5h-0.4h-0.2l-0.6,3.4c-0.2,0-0.4,0.1-0.6,0.1h-1c-0.2,0-0.4,0-0.6-0.1L85.2,100z
			 M86.9,102.8c0.1,0,0.2,0.1,0.3,0.1h0.4c0.4,0,0.8-0.1,1.1-0.3c0.3-0.2,0.6-0.5,0.8-0.8c0.2-0.3,0.4-0.7,0.5-1.1
			c0.1-0.4,0.1-0.7,0.1-1.1c0-0.3-0.1-0.6-0.2-0.9c-0.2-0.3-0.4-0.4-0.8-0.4c-0.5,0-0.9,0.2-1.2,0.6c-0.4,0.6-0.7,1.3-0.7,2
			L86.9,102.8z"/>
		<path fill="#526D61" d="M96.4,104.7c-0.9,0.1-1.7-0.2-2.3-0.8c-0.5-0.6-0.8-1.4-0.7-2.3c0-0.6,0.1-1.2,0.3-1.8
			c0.2-0.6,0.4-1.2,0.8-1.7c0.4-0.5,0.8-0.9,1.4-1.2c0.6-0.3,1.3-0.5,1.9-0.5c0.9-0.1,1.7,0.2,2.3,0.8c0.5,0.6,0.8,1.4,0.7,2.3
			c0,0.6-0.1,1.2-0.3,1.8c-0.2,0.6-0.4,1.2-0.8,1.7c-0.4,0.5-0.8,0.9-1.4,1.2C97.8,104.6,97.1,104.7,96.4,104.7 M96.6,103.1
			c0.4,0,0.7-0.1,1-0.4c0.3-0.3,0.5-0.6,0.7-0.9c0.2-0.4,0.3-0.7,0.3-1.1c0.1-0.4,0.1-0.7,0.1-1.1c0-0.9-0.4-1.4-1.1-1.4
			c-0.4,0-0.7,0.1-1,0.4c-0.3,0.3-0.5,0.6-0.6,0.9c-0.2,0.4-0.3,0.8-0.3,1.2c-0.1,0.4-0.1,0.7-0.1,1.1
			C95.5,102.6,95.9,103.1,96.6,103.1"/>
		<path fill="#526D61" d="M102.6,100c0.1-0.6,0.2-1.2,0.3-1.7c0.1-0.4,0.1-0.8,0.1-1.2v-0.3c0-0.1,0-0.2,0-0.3
			c0.3-0.1,0.7-0.1,1-0.1h0.5l0.5,0.1c0,0.1,0,0.2,0.1,0.3c0,0.2,0,0.3,0,0.5c0,0.1,0,0.2,0,0.3s0,0.2,0,0.3
			c0.1-0.2,0.2-0.4,0.4-0.5c0.1-0.2,0.3-0.3,0.5-0.5c0.2-0.1,0.4-0.3,0.6-0.3c0.2-0.1,0.5-0.1,0.8-0.1c0.2,0,0.4,0,0.6,0.1
			c0,0,0,0.1,0,0.1v0.1c0,0.3,0,0.6-0.1,0.9c-0.1,0.3-0.2,0.5-0.3,0.8h-0.2h-0.3c-0.3,0-0.7,0.1-1,0.2c-0.3,0.1-0.5,0.4-0.7,0.6
			c-0.2,0.3-0.3,0.6-0.4,0.9c-0.1,0.4-0.2,0.8-0.3,1.2l-0.6,3.1c-0.4,0.1-0.7,0.1-1.1,0.1c-0.3,0-0.7,0-1-0.1L102.6,100z"/>
		<path fill="#526D61" d="M113.1,101.5c0,0.8,0.7,1.5,1.5,1.5c0.1,0,0.1,0,0.2,0c0.4,0,0.7,0,1.1-0.1c0.3-0.1,0.7-0.2,1-0.3
			c0.2,0.2,0.3,0.5,0.3,0.7c0.1,0.3,0.1,0.6,0.1,0.9c-0.2,0.1-0.4,0.2-0.6,0.2c-0.2,0.1-0.5,0.1-0.7,0.2s-0.5,0.1-0.7,0.1
			s-0.5,0-0.7,0c-0.5,0-1.1-0.1-1.6-0.2c-0.4-0.1-0.8-0.4-1.1-0.7c-0.3-0.3-0.5-0.6-0.6-1c-0.1-0.4-0.2-0.9-0.2-1.3
			c0-0.6,0.1-1.2,0.3-1.8c0.2-0.6,0.5-1.1,0.9-1.6c0.4-0.5,0.9-0.9,1.4-1.1c0.6-0.3,1.2-0.4,1.9-0.4c0.3,0,0.6,0,0.9,0.1
			c0.3,0.1,0.5,0.2,0.8,0.4c0.2,0.2,0.4,0.4,0.5,0.6c0.1,0.3,0.2,0.6,0.2,0.8c0,0.4-0.1,0.8-0.3,1.2c-0.2,0.3-0.5,0.6-0.8,0.8
			c-0.4,0.2-0.8,0.4-1.2,0.6c-0.5,0.1-0.9,0.3-1.4,0.3L113.1,101.5z M114,100c0.3,0,0.6-0.1,0.9-0.2c0.2-0.1,0.4-0.2,0.6-0.3
			c0.1-0.1,0.2-0.2,0.3-0.4c0-0.1,0.1-0.2,0.1-0.4c0-0.2-0.1-0.3-0.2-0.5c-0.1-0.1-0.3-0.2-0.5-0.2c-0.3,0-0.5,0.1-0.7,0.2
			c-0.2,0.1-0.4,0.3-0.6,0.5c-0.2,0.2-0.3,0.4-0.4,0.7c-0.1,0.2-0.2,0.5-0.3,0.8L114,100z"/>
		<path fill="#526D61" d="M120.1,96.3c0.1-0.5,0.2-1,0.2-1.4c0-0.3,0.1-0.7,0.1-1c0-0.2,0-0.4,0-0.5c0.2,0,0.4-0.1,0.6-0.1
			c0.2,0,0.4,0,0.6,0c0.3,0,0.7,0,1,0.1c0,0.2,0,0.4,0,0.5c0,0.2,0,0.5-0.1,0.7c0,0.3-0.1,0.6-0.2,0.9l-1.2,6.1c0,0.1,0,0.3,0,0.4
			c0,0.1,0,0.3,0.1,0.4c0,0.1,0.1,0.2,0.2,0.2c0.1,0.1,0.2,0.1,0.3,0.1c0.1,0,0.2,0,0.3,0h0.2c0.1,0,0.2,0,0.3-0.1
			c0,0.2,0.1,0.4,0.1,0.6c0,0.2,0,0.4,0,0.6v0.2v0.2c-0.2,0.1-0.4,0.1-0.6,0.1c-0.3,0-0.5,0-0.8,0c-0.6,0-1.2-0.1-1.6-0.5
			c-0.4-0.4-0.6-1-0.6-1.6c0-0.1,0-0.3,0-0.4c0-0.2,0-0.3,0.1-0.5L120.1,96.3z"/>
		<path fill="#526D61" d="M129,96.3c0.1-0.8,0.2-1.6,0.3-2.4v-0.3c0-0.1,0-0.2,0-0.3c0.2,0,0.4-0.1,0.6-0.1c0.2,0,0.4,0,0.6,0
			c0.3,0,0.7,0,1,0.1c0.1,0.2,0.1,0.4,0.1,0.6c0,0.5-0.1,1.1-0.2,1.6l-0.4,2.1c0.1-0.2,0.3-0.3,0.4-0.4c0.2-0.2,0.3-0.3,0.5-0.4
			c0.2-0.1,0.4-0.2,0.7-0.3c0.3-0.1,0.6-0.1,0.9-0.1c0.6,0,1.2,0.2,1.6,0.7c0.4,0.6,0.6,1.4,0.6,2.1c0,0.6-0.1,1.3-0.3,1.9
			c-0.2,0.6-0.5,1.2-0.9,1.7c-0.5,0.5-1.1,1-1.7,1.3c-0.8,0.3-1.7,0.5-2.6,0.5c-0.4,0-0.9,0-1.3-0.1c-0.4-0.1-0.8-0.2-1.1-0.3
			L129,96.3z M130,102.8c0.1,0,0.2,0.1,0.3,0.1h0.4c0.4,0,0.8-0.1,1.1-0.3c0.3-0.2,0.6-0.5,0.8-0.8c0.2-0.3,0.4-0.7,0.4-1.1
			c0.1-0.4,0.1-0.7,0.1-1.1c0-0.3-0.1-0.6-0.2-0.9c-0.2-0.3-0.4-0.4-0.8-0.4c-0.5,0-0.9,0.2-1.2,0.6c-0.4,0.6-0.7,1.3-0.7,2
			L130,102.8z"/>
		<path fill="#526D61" d="M137.9,98.3h-1c0,0,0-0.1,0-0.1c0,0,0-0.1,0-0.1c0-0.2,0-0.5,0.1-0.7c0.1-0.2,0.1-0.5,0.2-0.7h3.1
			l-1.4,7.9c-0.4,0.1-0.7,0.1-1.1,0.1c-0.3,0-0.7,0-1-0.1L137.9,98.3z M138.4,95.3c0-0.3,0-0.7,0.1-1c0.1-0.3,0.2-0.7,0.3-1
			c0.2,0,0.4-0.1,0.6-0.1h0.6h0.5c0.2,0,0.4,0,0.6,0.1c0,0.3,0,0.7-0.1,1c-0.1,0.3-0.2,0.7-0.3,1c-0.2,0-0.4,0.1-0.6,0.1h-1.1
			C138.7,95.3,138.6,95.3,138.4,95.3"/>
		<path fill="#526D61" d="M143.4,101.5c0,0.4,0.2,0.8,0.5,1.1c0.3,0.3,0.7,0.4,1.1,0.4c0.4,0,0.7,0,1.1-0.1c0.3-0.1,0.7-0.2,1-0.3
			c0.2,0.2,0.3,0.5,0.3,0.7c0.1,0.3,0.1,0.6,0.1,0.9c-0.2,0.1-0.4,0.2-0.6,0.2c-0.2,0.1-0.5,0.1-0.7,0.2c-0.2,0-0.5,0.1-0.7,0.1
			s-0.5,0-0.6,0c-0.5,0-1.1-0.1-1.6-0.2c-0.4-0.1-0.8-0.4-1.1-0.7c-0.3-0.3-0.5-0.6-0.6-1c-0.1-0.4-0.2-0.9-0.2-1.3
			c0-0.6,0.1-1.2,0.3-1.8c0.2-0.6,0.5-1.1,0.9-1.6c0.4-0.5,0.9-0.9,1.4-1.1c0.6-0.3,1.2-0.4,1.9-0.4c0.3,0,0.6,0,0.9,0.1
			c0.3,0.1,0.5,0.2,0.8,0.4c0.2,0.2,0.4,0.4,0.5,0.6c0.1,0.3,0.2,0.6,0.2,0.8c0,0.4-0.1,0.8-0.3,1.2c-0.2,0.3-0.5,0.6-0.9,0.8
			c-0.4,0.2-0.8,0.4-1.2,0.6c-0.5,0.1-0.9,0.3-1.4,0.3L143.4,101.5z M144.3,100c0.3,0,0.6-0.1,0.9-0.2c0.2-0.1,0.4-0.2,0.6-0.3
			c0.1-0.1,0.2-0.2,0.3-0.4c0-0.1,0.1-0.2,0.1-0.4c0-0.2-0.1-0.3-0.2-0.5c-0.1-0.1-0.3-0.2-0.5-0.2c-0.3,0-0.5,0.1-0.7,0.2
			c-0.2,0.1-0.4,0.3-0.6,0.5c-0.2,0.2-0.3,0.4-0.4,0.7c-0.1,0.2-0.2,0.5-0.3,0.8L144.3,100z"/>
		<path fill="#526D61" d="M149.8,100c0.1-0.6,0.2-1.2,0.3-1.7c0.1-0.4,0.1-0.8,0.1-1.2v-0.3c0-0.1,0-0.2,0-0.3
			c0.3-0.1,0.7-0.1,1-0.1h0.5l0.5,0.1c0,0.1,0.1,0.2,0.1,0.3c0,0.2,0,0.3,0,0.5c0,0.1,0,0.2,0,0.3s0,0.2,0,0.3
			c0.1-0.2,0.3-0.4,0.5-0.6c0.2-0.2,0.4-0.4,0.6-0.5c0.2-0.1,0.5-0.3,0.8-0.3c0.3-0.1,0.5-0.1,0.8-0.1c0.5,0,1,0.1,1.4,0.5
			c0.4,0.4,0.6,1,0.5,1.5c0,0.2,0,0.3,0,0.5c0,0.2,0,0.3-0.1,0.5l-0.9,5c-0.4,0.1-0.7,0.1-1.1,0.1c-0.3,0-0.7,0-1-0.1l0.9-4.8
			c0-0.2,0.1-0.4,0.1-0.6c0-0.2,0-0.5-0.2-0.6c-0.2-0.1-0.4-0.2-0.6-0.2c-0.2,0-0.3,0-0.5,0.1c-0.2,0.1-0.4,0.3-0.5,0.4
			c-0.2,0.3-0.4,0.6-0.5,1c-0.2,0.5-0.4,1.1-0.4,1.7l-0.6,3.1c-0.4,0.1-0.7,0.1-1.1,0.1c-0.3,0-0.7,0-1-0.1L149.8,100z"/>
		<path fill="#526D61" d="M160,101.5c0,0.4,0.2,0.8,0.5,1.1c0.3,0.3,0.7,0.4,1.1,0.4c0.4,0,0.7,0,1.1-0.1c0.3-0.1,0.7-0.2,1-0.3
			c0.2,0.2,0.3,0.5,0.3,0.7c0.1,0.3,0.1,0.6,0.1,0.9c-0.2,0.1-0.4,0.2-0.6,0.2c-0.2,0.1-0.5,0.1-0.7,0.2s-0.5,0.1-0.7,0.1
			s-0.4,0-0.6,0c-0.5,0-1.1-0.1-1.6-0.2c-0.4-0.1-0.8-0.4-1.1-0.7c-0.3-0.3-0.5-0.6-0.6-1c-0.1-0.4-0.2-0.9-0.2-1.3
			c0-1.2,0.4-2.5,1.2-3.4c0.4-0.5,0.9-0.9,1.4-1.1c0.6-0.3,1.2-0.4,1.9-0.4c0.3,0,0.6,0,0.9,0.1c0.3,0.1,0.5,0.2,0.8,0.4
			c0.2,0.2,0.4,0.4,0.5,0.6c0.1,0.3,0.2,0.6,0.2,0.8c0,0.4-0.1,0.8-0.3,1.2c-0.2,0.3-0.5,0.6-0.9,0.8c-0.4,0.2-0.8,0.4-1.2,0.6
			c-0.5,0.1-0.9,0.3-1.4,0.3L160,101.5z M160.9,100c0.3,0,0.6-0.1,0.9-0.2c0.2-0.1,0.4-0.2,0.6-0.3c0.1-0.1,0.2-0.2,0.3-0.4
			c0-0.1,0.1-0.2,0.1-0.4c0-0.2-0.1-0.3-0.2-0.5c-0.1-0.1-0.3-0.2-0.5-0.2c-0.3,0-0.5,0.1-0.7,0.2c-0.2,0.1-0.4,0.3-0.6,0.5
			c-0.2,0.2-0.3,0.4-0.4,0.7c-0.1,0.2-0.2,0.5-0.3,0.8L160.9,100z"/>
		<path fill="#526D61" d="M167.6,101c-0.2-0.1-0.3-0.1-0.5-0.2c-0.2-0.1-0.3-0.2-0.4-0.4c-0.1-0.2-0.3-0.3-0.3-0.6
			c-0.1-0.2-0.1-0.5-0.1-0.8c0-0.4,0.1-0.8,0.3-1.1c0.2-0.3,0.4-0.6,0.7-0.8c0.3-0.2,0.6-0.4,1-0.5c0.4-0.1,0.9-0.2,1.3-0.2h0.5
			l0.6,0.1c0.2,0,0.4,0.1,0.6,0.1c0.2,0,0.3,0.1,0.5,0.2c0,0.3-0.1,0.5-0.1,0.8c-0.1,0.3-0.2,0.5-0.4,0.8c-0.2-0.1-0.5-0.2-0.8-0.3
			c-0.3-0.1-0.6-0.1-0.9-0.1h-0.4c-0.1,0-0.3,0.1-0.4,0.1c-0.1,0-0.2,0.1-0.3,0.2c-0.1,0.1-0.1,0.2-0.1,0.4c0,0.3,0.2,0.6,0.6,0.7
			l0.6,0.3c0.2,0.1,0.4,0.2,0.6,0.3c0.2,0.1,0.3,0.2,0.5,0.4c0.1,0.2,0.3,0.3,0.4,0.5c0.1,0.2,0.1,0.5,0.1,0.7
			c0,0.5-0.1,0.9-0.3,1.3c-0.2,0.4-0.5,0.7-0.8,0.9c-0.4,0.3-0.8,0.4-1.2,0.6c-0.5,0.1-1,0.2-1.5,0.2c-0.4,0-0.7,0-1.1-0.1
			c-0.4-0.1-0.7-0.2-1.1-0.3c0-0.6,0.2-1.1,0.5-1.6c0.3,0.1,0.7,0.2,1,0.3c0.3,0.1,0.7,0.1,1,0.1c0.2,0,0.3,0,0.5,0
			c0.2,0,0.3-0.1,0.5-0.2c0.1-0.1,0.3-0.2,0.4-0.3c0.1-0.1,0.2-0.3,0.1-0.5c0-0.2-0.1-0.4-0.2-0.5c-0.2-0.1-0.4-0.3-0.6-0.3
			L167.6,101z"/>
		<path fill="#526D61" d="M173.6,98.3h-1.2c0-0.3,0-0.5,0.1-0.8c0-0.3,0.1-0.6,0.2-0.8h1.2l0.1-0.5c0-0.2,0.1-0.5,0.1-0.7
			c0-0.2,0-0.4,0-0.6c0.3-0.2,0.6-0.3,1-0.4c0.4-0.1,0.7-0.1,1.1-0.1c0.1,0.2,0.1,0.4,0.1,0.6c0,0.2,0,0.3,0,0.5
			c0,0.2-0.1,0.4-0.1,0.6l-0.1,0.5h1.9c0,0.3,0,0.6-0.1,0.8c-0.1,0.3-0.1,0.5-0.2,0.8h-1.9l-0.5,3c0,0.1,0,0.3,0,0.4
			c0,0.1,0,0.2,0,0.3c0,0.2,0,0.4,0.2,0.6c0.2,0.2,0.4,0.3,0.7,0.2c0.2,0,0.3,0,0.5,0l0.4-0.1c0.1,0.4,0.2,0.8,0.2,1.2v0.2
			c0,0.1,0,0.2,0,0.2c-0.5,0.1-1,0.2-1.6,0.2c-0.7,0.1-1.3-0.1-1.9-0.5c-0.4-0.4-0.7-1-0.6-1.6c0-0.2,0-0.3,0-0.5
			c0-0.2,0.1-0.3,0.1-0.5L173.6,98.3z"/>
		<path fill="#526D61" d="M185.1,101.1c-0.1,0.6-0.2,1.2-0.2,1.7s-0.1,0.9-0.1,1.2v0.3c0,0.1,0,0.2,0,0.3c-0.6,0.1-1.3,0.1-1.9,0
			c0-0.1,0-0.2-0.1-0.3c0-0.2,0-0.3,0-0.5v-0.3c0-0.1,0-0.2,0-0.3c-0.3,0.5-0.7,0.9-1.1,1.2c-0.5,0.3-1,0.5-1.6,0.5
			c-0.6,0-1.1-0.2-1.5-0.6c-0.4-0.5-0.5-1.1-0.5-1.7c0-0.7,0.1-1.5,0.3-2.2c0.2-0.7,0.6-1.3,1-1.9c1-1.2,2.5-1.9,4-1.8
			c0.4,0,0.8,0,1.3,0.1c0.4,0.1,0.8,0.1,1.1,0.3L185.1,101.1z M183.6,98.3c-0.1,0-0.2,0-0.3,0h-0.3c-0.4,0-0.9,0.1-1.2,0.4
			c-0.3,0.2-0.6,0.6-0.9,0.9c-0.2,0.4-0.4,0.8-0.5,1.2c-0.1,0.4-0.1,0.8-0.1,1.2c0,0.8,0.2,1.1,0.7,1.1c0.6-0.1,1.1-0.4,1.4-0.9
			c0.5-0.8,0.8-1.6,0.9-2.5L183.6,98.3z"/>
		<path fill="#526D61" d="M187.6,100c0.1-0.6,0.2-1.2,0.3-1.7c0.1-0.4,0.1-0.8,0.1-1.2v-0.3c0-0.1,0-0.2,0-0.3
			c0.3-0.1,0.7-0.1,1-0.1h0.5l0.5,0.1c0,0.1,0,0.2,0.1,0.3c0,0.2,0,0.3,0,0.5c0,0.1,0,0.2,0,0.3s0,0.2,0,0.3
			c0.1-0.2,0.2-0.4,0.4-0.5c0.1-0.2,0.3-0.3,0.5-0.5c0.2-0.1,0.4-0.3,0.6-0.3c0.2-0.1,0.5-0.1,0.8-0.1c0.2,0,0.4,0,0.5,0.1
			c0,0,0,0.1,0,0.1v0.1c0,0.3,0,0.6-0.1,0.9c-0.1,0.3-0.2,0.5-0.3,0.8h-0.2h-0.3c-0.3,0-0.7,0.1-1,0.2c-0.3,0.1-0.5,0.4-0.7,0.6
			c-0.2,0.3-0.3,0.6-0.4,0.9c-0.1,0.4-0.2,0.8-0.3,1.2l-0.6,3.1c-0.4,0.1-0.7,0.1-1.1,0.1c-0.4,0-0.7,0-1.1-0.1L187.6,100z"/>
		<path fill="#526D61" d="M203,101.1c-0.1,0.6-0.2,1.2-0.2,1.7s-0.1,0.9-0.1,1.2v0.3c0,0.1,0,0.2,0,0.3c-0.6,0.1-1.3,0.1-1.9,0
			c0-0.1,0-0.2-0.1-0.3c0-0.2,0-0.3,0-0.5c0-0.1,0-0.2,0-0.3c0-0.1,0-0.3,0-0.4c-0.1,0.2-0.3,0.5-0.5,0.7c-0.2,0.2-0.4,0.4-0.7,0.5
			c-0.2,0.2-0.5,0.3-0.8,0.4c-0.3,0.1-0.6,0.1-0.9,0.1c-0.6,0-1.1-0.2-1.5-0.6c-0.4-0.5-0.5-1.1-0.5-1.7c0-0.7,0.1-1.5,0.3-2.2
			c0.2-0.7,0.5-1.3,1-1.9c0.5-0.6,1-1,1.7-1.3c0.7-0.3,1.5-0.5,2.3-0.5h0.4c0.1-0.6,0.2-1.1,0.2-1.5s0.1-0.8,0.1-1
			c0-0.1,0-0.2,0-0.3c0-0.1,0-0.2,0-0.3c0.2,0,0.4-0.1,0.6-0.1c0.2,0,0.4,0,0.6,0c0.3,0,0.7,0,1,0.1c0.1,0.2,0.1,0.4,0.1,0.6
			c0,0.5-0.1,1.1-0.2,1.6L203,101.1z M201.3,98.3c-0.1,0-0.2,0-0.3,0h-0.3c-0.4,0-0.9,0.1-1.2,0.4c-0.3,0.2-0.6,0.6-0.8,0.9
			c-0.2,0.4-0.4,0.8-0.5,1.2c-0.1,0.4-0.2,0.8-0.2,1.2c0,0.8,0.3,1.1,0.8,1.1c0.6-0.1,1.1-0.4,1.4-0.9c0.5-0.8,0.8-1.6,0.9-2.5
			L201.3,98.3z"/>
		<path fill="#526D61" d="M206.8,101.5c0,0.8,0.6,1.5,1.4,1.5c0.1,0,0.1,0,0.2,0c0.4,0,0.7,0,1.1-0.1c0.3-0.1,0.7-0.2,1-0.3
			c0.2,0.2,0.3,0.5,0.3,0.7c0.1,0.3,0.1,0.6,0.1,0.9c-0.2,0.1-0.4,0.2-0.6,0.2c-0.2,0.1-0.5,0.1-0.7,0.2s-0.5,0.1-0.7,0.1
			s-0.5,0-0.6,0c-0.5,0-1.1-0.1-1.6-0.2c-0.4-0.1-0.8-0.4-1.1-0.7c-0.3-0.3-0.5-0.6-0.6-1c-0.1-0.4-0.2-0.9-0.2-1.3
			c0-1.3,0.4-2.5,1.2-3.4c0.4-0.5,0.9-0.9,1.4-1.1c0.6-0.3,1.2-0.4,1.9-0.4c0.3,0,0.6,0,0.9,0.1c0.3,0.1,0.5,0.2,0.8,0.4
			c0.2,0.2,0.4,0.4,0.5,0.6c0.1,0.3,0.2,0.6,0.2,0.8c0,0.4-0.1,0.8-0.3,1.2c-0.2,0.3-0.5,0.6-0.9,0.8c-0.4,0.2-0.8,0.4-1.2,0.6
			c-0.5,0.1-0.9,0.3-1.4,0.3L206.8,101.5z M207.6,100c0.3,0,0.6-0.1,0.9-0.2c0.2-0.1,0.4-0.2,0.6-0.3c0.1-0.1,0.2-0.2,0.3-0.4
			c0-0.1,0.1-0.2,0.1-0.4c0-0.2-0.1-0.3-0.2-0.5c-0.1-0.1-0.3-0.2-0.5-0.2c-0.3,0-0.5,0.1-0.7,0.2c-0.2,0.1-0.4,0.3-0.6,0.5
			c-0.2,0.2-0.3,0.4-0.4,0.7c-0.1,0.2-0.2,0.5-0.3,0.8L207.6,100z"/>
		<path fill="#526D61" d="M216.8,98.3h-1.2c0-0.3,0-0.5,0.1-0.8c0-0.3,0.1-0.6,0.2-0.8h1.2l0.1-0.5c0-0.2,0.1-0.5,0.1-0.7
			c0-0.2,0-0.4,0-0.6c0.3-0.2,0.6-0.3,1-0.4c0.4-0.1,0.7-0.1,1.1-0.1c0.1,0.2,0.1,0.4,0.1,0.6c0,0.2,0,0.3,0,0.5
			c0,0.2-0.1,0.4-0.1,0.6l-0.1,0.5h1.9c0,0.3,0,0.6-0.1,0.8c-0.1,0.3-0.1,0.5-0.2,0.8h-1.9l-0.5,3c0,0.1,0,0.3,0,0.4s0,0.2,0,0.3
			c0,0.2,0.1,0.4,0.2,0.6c0.2,0.2,0.4,0.3,0.7,0.2c0.2,0,0.3,0,0.5,0l0.4-0.1c0.1,0.4,0.2,0.8,0.2,1.2v0.2c0,0.1,0,0.2,0,0.2
			c-0.5,0.1-1,0.2-1.6,0.2c-0.7,0.1-1.3-0.1-1.9-0.5c-0.4-0.4-0.7-1-0.6-1.6c0-0.2,0-0.3,0-0.5c0-0.2,0-0.3,0.1-0.5L216.8,98.3z"/>
		<path fill="#526D61" d="M224.4,104.7c-0.9,0.1-1.7-0.2-2.3-0.8c-0.5-0.6-0.8-1.4-0.7-2.3c0-0.6,0.1-1.2,0.3-1.8
			c0.2-0.6,0.5-1.2,0.8-1.7c0.4-0.5,0.8-0.9,1.4-1.2c0.6-0.3,1.3-0.5,1.9-0.5c0.9-0.1,1.7,0.2,2.3,0.8c0.5,0.6,0.8,1.4,0.7,2.3
			c0,0.6-0.1,1.2-0.3,1.8c-0.2,0.6-0.4,1.2-0.8,1.7c-0.4,0.5-0.8,0.9-1.4,1.2C225.8,104.5,225.1,104.7,224.4,104.7 M224.6,103
			c0.4,0,0.7-0.1,1-0.4c0.3-0.3,0.5-0.6,0.6-0.9c0.2-0.4,0.3-0.7,0.4-1.1c0.1-0.4,0.1-0.7,0.1-1.1c0-0.9-0.4-1.4-1.1-1.4
			c-0.4,0-0.7,0.1-1,0.4c-0.3,0.3-0.5,0.6-0.6,0.9c-0.2,0.4-0.3,0.8-0.3,1.2c-0.1,0.4-0.1,0.7-0.1,1.1
			C223.5,102.6,223.8,103,224.6,103"/>
		<path fill="#526D61" d="M236.8,101.1c-0.1,0.6-0.2,1.2-0.2,1.7s-0.1,0.9-0.1,1.2v0.3c0,0.1,0,0.2,0,0.3c-0.3,0.1-0.7,0.1-1,0.1
			c-0.3,0-0.6,0-0.9-0.1c0-0.1,0-0.2-0.1-0.3c0-0.2,0-0.3,0-0.5c0-0.1,0-0.2,0-0.3c0-0.1,0-0.3,0-0.4c-0.1,0.2-0.3,0.5-0.5,0.7
			c-0.2,0.2-0.4,0.4-0.6,0.5c-0.2,0.2-0.5,0.3-0.8,0.4c-0.3,0.1-0.6,0.1-0.9,0.1c-0.6,0-1.1-0.2-1.5-0.6c-0.4-0.5-0.5-1.1-0.5-1.7
			c0-0.8,0.1-1.5,0.4-2.2c0.2-0.7,0.5-1.3,1-1.9c0.5-0.6,1-1,1.7-1.3c0.7-0.3,1.5-0.5,2.3-0.5h0.4c0.1-0.6,0.2-1.1,0.2-1.5
			c0-0.3,0.1-0.7,0.1-1v-0.3v-0.3c0.2,0,0.4-0.1,0.6-0.1c0.2,0,0.4,0,0.6,0c0.3,0,0.7,0,1,0.1c0.1,0.2,0.1,0.4,0.1,0.6
			c0,0.5-0.1,1.1-0.2,1.6L236.8,101.1z M235.2,98.3c-0.1,0-0.2,0-0.3,0h-0.3c-0.4,0-0.9,0.1-1.2,0.4c-0.3,0.2-0.6,0.6-0.8,0.9
			c-0.2,0.4-0.4,0.8-0.5,1.2c-0.1,0.4-0.1,0.8-0.1,1.2c0,0.8,0.3,1.1,0.7,1.1c0.6,0,1.1-0.4,1.4-0.9c0.5-0.8,0.8-1.6,0.9-2.5
			L235.2,98.3z"/>
		<path fill="#526D61" d="M241.6,104.7c-0.9,0.1-1.7-0.2-2.3-0.8c-0.5-0.6-0.8-1.4-0.7-2.3c0-0.6,0.1-1.2,0.3-1.8
			c0.2-0.6,0.5-1.2,0.8-1.7c0.4-0.5,0.8-0.9,1.4-1.2c0.6-0.3,1.3-0.5,1.9-0.5c0.9-0.1,1.7,0.2,2.3,0.8c0.5,0.6,0.8,1.4,0.7,2.3
			c0,0.6-0.1,1.2-0.3,1.8c-0.2,0.6-0.4,1.2-0.8,1.7c-0.4,0.5-0.8,0.9-1.4,1.2C242.9,104.5,242.2,104.7,241.6,104.7 M241.7,103
			c0.4,0,0.7-0.1,1-0.4c0.3-0.3,0.5-0.6,0.6-0.9c0.2-0.4,0.3-0.7,0.4-1.1c0.1-0.4,0.1-0.7,0.1-1.1c0-0.9-0.4-1.4-1.1-1.4
			c-0.4,0-0.7,0.1-1,0.4c-0.3,0.3-0.5,0.6-0.6,0.9c-0.2,0.4-0.3,0.8-0.3,1.2c-0.1,0.4-0.1,0.7-0.1,1.1
			C240.6,102.6,241,103,241.7,103"/>
		<path fill="#526D61" d="M248.8,101c-0.2-0.1-0.3-0.1-0.5-0.2c-0.2-0.1-0.3-0.2-0.4-0.4c-0.1-0.2-0.3-0.3-0.3-0.6
			c-0.1-0.2-0.1-0.5-0.1-0.8c0-0.4,0.1-0.8,0.3-1.1c0.2-0.3,0.4-0.6,0.7-0.8c0.3-0.2,0.6-0.4,1-0.5c0.4-0.1,0.9-0.2,1.3-0.2h0.5
			l0.6,0.1c0.2,0,0.4,0.1,0.6,0.1c0.2,0,0.3,0.1,0.5,0.2c0,0.3-0.1,0.5-0.1,0.8c-0.1,0.3-0.2,0.5-0.4,0.8c-0.2-0.1-0.5-0.2-0.8-0.3
			c-0.3-0.1-0.6-0.1-0.9-0.1h-0.4c-0.1,0-0.3,0.1-0.4,0.1c-0.1,0-0.2,0.1-0.3,0.2c-0.1,0.1-0.1,0.2-0.1,0.4c0,0.3,0.2,0.6,0.6,0.7
			l0.6,0.3c0.2,0.1,0.4,0.2,0.6,0.3c0.2,0.1,0.3,0.2,0.5,0.4c0.3,0.3,0.5,0.8,0.5,1.2c0,0.5-0.1,0.9-0.3,1.3
			c-0.2,0.4-0.5,0.7-0.8,0.9c-0.4,0.3-0.8,0.4-1.2,0.6c-0.5,0.1-1,0.2-1.5,0.2c-0.4,0-0.7,0-1.1-0.1c-0.4-0.1-0.7-0.2-1.1-0.3
			c0-0.6,0.2-1.1,0.4-1.6c0.3,0.1,0.7,0.2,1,0.3c0.3,0.1,0.7,0.1,1,0.1c0.2,0,0.3,0,0.5,0c0.2,0,0.3-0.1,0.5-0.2
			c0.1-0.1,0.3-0.2,0.4-0.3c0.1-0.1,0.2-0.3,0.1-0.5c0-0.2-0.1-0.4-0.2-0.5c-0.2-0.1-0.4-0.3-0.6-0.3L248.8,101z"/>
	</g>
	<g>
		<defs>
			<path id="SVGID_1_" d="M52.8,36.9l0.5,0.5l14.4-15.4l-0.5-0.5L52.8,36.9z M18.9,9.1l19.4,32.6l-8.4-11l-0.6,0.4l8.1,10.7
				l-18.6-19l-0.5,0.5l17.8,18.1L20.4,30l-0.4,0.6l19.1,13.9l0.2,0.1L10.1,26.3l-0.4,0.6l27.7,17.4l-20.7-8.3l-0.3,0.7L37.2,45
				L5.6,36.8l-0.2,0.7l28.3,7.4l-18.7-1.9L15,43.7l20.7,2.1L9.2,45.6v0.7l26.3,0.2l-20.7,2.4l0.1,0.7l21.8-2.5L6.5,54.9l0.2,0.7
				l32-8.3l-17.2,6.5l0.3,0.7L37,48.8L17.1,61.8l0.4,0.6l20.6-13.5L37,50.5L8.6,77l0.5,0.5l25.5-23.9L22.4,70l0.6,0.4l14.5-19.5
				l2.8-2.7l-7.6,22l0.7,0.2l7.1-20.5l-6.8,32.1l0.7,0.2l6.5-31l-1.7,22.3l0.7,0.1l1.5-20.4l1.3,32h0.7l-1.3-34.2l3.1,19.5l0.7-0.1
				l-3-19.2l8.5,24.2l0.7-0.3l-9.1-25.8l10.1,17l0.6-0.4l-9.9-16.6l21.3,18l0.5-0.6L43.9,48.5l13.4,6.8l0.3-0.7l-13.5-6.8l21.5,5.1
				l0.2-0.7l-21.4-5.1h24.3v-0.7H45.1l13.1-5.2l-0.3-0.7l-14.8,5.8h-0.5v0.2l-0.2,0.1l-0.3-0.1l0,0l-0.1-0.4v-0.2l0.6,0.3l9.4-17
				L51.5,29l-9.2,16.9l12.1-35.5l-0.7-0.2L42.2,43.6l1.3-20.1h-0.7l-1.2,18l-1-29.6h-0.7l1,29.6l-4.8-22.3l-0.7,0.1l4.7,22
				l-8.7-20.1l-0.7,0.3l9.6,22.2l-20.8-35L18.9,9.1z"/>
		</defs>
		<clipPath id="SVGID_2_">
			<use xlink:href="#SVGID_1_"  overflow="visible"/>
		</clipPath>
		<g clip-path="url(#SVGID_2_)">
			
				<radialGradient id="SVGID_3_" cx="-156.7384" cy="161.9459" r="0.9987" gradientTransform="matrix(35.12 0 0 35.12 5541.7349 -5640.563)" gradientUnits="userSpaceOnUse">
				<stop  offset="0" style="stop-color:#CDA800"/>
				<stop  offset="0.73" style="stop-color:#93B149"/>
				<stop  offset="1" style="stop-color:#7CB465"/>
			</radialGradient>
			<rect x="5.5" y="8.7" fill="url(#SVGID_3_)" width="63.2" height="76.6"/>
		</g>
	</g>
	<polygon fill="#85BA5D" points="97.7,24.3 95,5.7 95.6,5.7 98.3,24.2 	"/>
	<polygon fill="#85BA5D" points="75.3,32.7 74.9,32.3 83.3,22 83.8,22.4 	"/>
	
		<rect x="110.4" y="13.2" transform="matrix(-0.9274 0.3741 -0.3741 -0.9274 230.7496 -17.7601)" fill="#85BA5D" width="13.3" height="0.6"/>
	<path fill="#526D61" d="M39.5,75.5c-0.7,0-1.2-0.6-1.2-1.3c0-0.6,0.5-1.1,1.1-1.2h0.1c0.7,0,1.2,0.6,1.2,1.3
		C40.7,74.9,40.2,75.4,39.5,75.5L39.5,75.5z M45.6,71.8c-0.7,0-1.2-0.5-1.3-1.2c0-0.3,0.1-0.7,0.3-0.9c0.2-0.3,0.5-0.4,0.9-0.4h0.1
		c0.7,0,1.2,0.6,1.2,1.3C46.8,71.3,46.3,71.8,45.6,71.8L45.6,71.8z M33.1,71.5c-0.7,0-1.3-0.5-1.3-1.2S32.3,69,33,69h0.1
		c0.7,0,1.3,0.5,1.3,1.2C34.4,70.9,33.8,71.5,33.1,71.5L33.1,71.5L33.1,71.5z M22.6,71.5c-0.7,0-1.2-0.5-1.3-1.2
		c0-0.3,0.1-0.7,0.3-0.9c0.2-0.3,0.5-0.4,0.9-0.4h0.1c0.7,0,1.3,0.5,1.3,1.2S23.3,71.5,22.6,71.5L22.6,71.5L22.6,71.5z M53.5,67.5
		c-0.7,0-1.3-0.5-1.3-1.2c0-0.7,0.5-1.3,1.2-1.3h0.1c0.7,0,1.3,0.5,1.3,1.2c0,0.3-0.1,0.6-0.3,0.9C54.2,67.4,53.9,67.5,53.5,67.5
		L53.5,67.5z M58.1,56.8c-0.7,0-1.3-0.5-1.3-1.2c0-0.3,0.1-0.6,0.3-0.9c0.2-0.3,0.5-0.4,0.9-0.4h0.1c0.7,0,1.2,0.5,1.3,1.2
		C59.4,56.2,58.8,56.8,58.1,56.8C58.1,56.8,58.1,56.8,58.1,56.8L58.1,56.8z M21.7,55.5c-0.7,0-1.3-0.5-1.3-1.2
		c0-0.7,0.5-1.3,1.2-1.3h0.1c0.7,0,1.2,0.5,1.3,1.2c0,0.3-0.1,0.7-0.3,0.9C22.4,55.4,22.1,55.5,21.7,55.5L21.7,55.5z M14.8,50.5
		c-0.7,0-1.3-0.6-1.3-1.3c0-0.3,0.1-0.6,0.3-0.8c0.2-0.2,0.5-0.4,0.9-0.4h0.1c0.7,0,1.2,0.5,1.2,1.2c0,0.3-0.1,0.7-0.3,0.9
		C15.5,50.4,15.2,50.5,14.8,50.5L14.8,50.5z M15,44.4c-0.7,0-1.3-0.5-1.3-1.2c0-0.3,0.1-0.6,0.3-0.9c0.2-0.3,0.5-0.4,0.9-0.4H15
		c0.7,0,1.2,0.5,1.3,1.2C16.3,43.8,15.8,44.4,15,44.4C15.1,44.4,15.1,44.4,15,44.4L15,44.4z M57.6,42.2c-0.7,0-1.2-0.5-1.3-1.2
		c0-0.3,0.1-0.7,0.3-0.9c0.2-0.3,0.5-0.4,0.9-0.4h0.1c0.7,0,1.3,0.5,1.3,1.2c0,0.3-0.1,0.6-0.3,0.9C58.3,42,58,42.1,57.6,42.2
		L57.6,42.2z M16.6,37.4c-0.7,0-1.2-0.5-1.2-1.2c0-0.7,0.5-1.3,1.2-1.3h0.1c0.7,0,1.2,0.6,1.2,1.3C17.8,36.9,17.3,37.4,16.6,37.4
		L16.6,37.4z M29.6,32.1c-0.7,0-1.2-0.6-1.2-1.3c0-0.6,0.5-1.1,1.1-1.2h0.1c0.7,0,1.2,0.5,1.3,1.2c0,0.3-0.1,0.7-0.3,0.9
		C30.3,31.9,30,32.1,29.6,32.1L29.6,32.1z M20.1,31.6c-0.7,0-1.2-0.5-1.3-1.2c0-0.3,0.1-0.7,0.3-0.9c0.2-0.3,0.5-0.4,0.9-0.4h0.1
		c0.7,0,1.2,0.6,1.2,1.3C21.3,31,20.8,31.5,20.1,31.6L20.1,31.6z M43.3,24.6c-0.7,0-1.2-0.5-1.3-1.2c0-0.3,0.1-0.7,0.3-0.9
		c0.2-0.2,0.5-0.4,0.9-0.4h0.1c0.7,0,1.3,0.5,1.3,1.2c0,0.3-0.1,0.6-0.3,0.9C44,24.4,43.7,24.5,43.3,24.6L43.3,24.6z M31.1,22.6
		c-0.7,0-1.3-0.6-1.3-1.3s0.6-1.3,1.3-1.3l0,0h0.1c0.7,0,1.2,0.6,1.2,1.3c0,0.6-0.5,1.1-1.1,1.2L31.1,22.6z"/>
	<path fill="#AAD58D" d="M18.2,62.7c0.2-0.2,0.3-0.5,0.3-0.8c0-0.6-0.4-1-1-1l-0.1-0.1l-2.6-3.1c-0.1-0.1-0.4-0.1-0.5,0c0,0,0,0,0,0
		c-0.1,0.1-0.1,0.4,0,0.5l2.6,3l-0.1,0.1l-0.1,0.1c0,0-0.1-0.1-0.1-0.1l-4-1.2c-0.2-0.1-0.4,0.1-0.4,0.3c-0.1,0.2,0.1,0.4,0.3,0.4
		l3.9,1.2l0,0l-3.7,1.3c-0.2,0.1-0.3,0.3-0.2,0.5c0,0.1,0.2,0.2,0.3,0.2h0.1l3.8-1.3l-1.8,3.5c-0.1,0.2,0,0.4,0.1,0.5
		c0.1,0,0.1,0,0.2,0c0.1,0,0.3-0.1,0.3-0.2l1.8-3.5h0.1l0.4,3.6c0,0.2,0.2,0.3,0.4,0.3l0,0c0.2,0,0.3-0.2,0.3-0.4l-0.4-3.7
		L18.2,62.7 M23.5,5.1l-3,2.9c-0.1-0.3-0.2-0.6-0.5-0.8l0.9-3.9c0-0.2-0.1-0.4-0.3-0.4c0,0,0,0,0,0c-0.2,0-0.4,0.1-0.4,0.3l-0.7,3.8
		c-0.1,0-0.2,0-0.3,0h-0.1c-0.1,0-0.2,0-0.3,0l-1.6-3.7C17.1,3,16.9,2.9,16.7,3c-0.2,0.1-0.3,0.3-0.2,0.5l1.6,3.7l-0.1,0.1
		c-0.1,0.1-0.2,0.3-0.3,0.4l-3.7-1.6c-0.2-0.1-0.4,0-0.5,0.2s0,0.4,0.2,0.5l3.8,1.7c0,0.1,0.1,0.3,0.1,0.4l-4.2,0.8
		c-0.2,0-0.3,0.2-0.3,0.4c0,0.2,0.2,0.3,0.3,0.3h0.1l4.5-0.8c0.3,0.2,0.6,0.3,0.9,0.3h0.1c0.4,0,0.7-0.2,1-0.5
		c0.1-0.1,0.1-0.2,0.2-0.3c0.1,0,0.2,0,0.3-0.1l3.4-3.4c0.1-0.1,0.1-0.4,0-0.5C24,5,23.7,5,23.5,5.1 M20.7,17
		c-0.2-0.1-0.4,0.1-0.5,0.3l-1.4,4.2c-0.1-0.1-0.2-0.1-0.4-0.1l-1.4-4.4c0-0.2-0.2-0.3-0.4-0.3s-0.3,0.2-0.3,0.4c0,0,0,0.1,0,0.1
		l1.4,4.4l-0.2,0.1l0,0l-3.8-2.9c-0.2-0.1-0.4-0.1-0.5,0.1c0,0,0,0,0,0c-0.1,0.2-0.1,0.4,0.1,0.5c0,0,0,0,0,0l3.8,2.9
		c0,0,0.1,0.1,0.2,0.1v0.1l-4.8,0.5c-0.2,0-0.4,0.2-0.4,0.4c0,0.2,0.2,0.4,0.4,0.4l0,0l4.8-0.5c0,0,0.1,0,0.1,0v0l-3.7,3.1
		c-0.1,0.1-0.1,0.4,0,0.5c0,0,0,0,0,0c0.1,0.1,0.2,0.1,0.3,0.1c0.1,0,0.2,0,0.2-0.1l3.9-3.3h0.1c0.3,0,0.5-0.1,0.7-0.3
		c0.2-0.2,0.3-0.5,0.3-0.8c0,0,0,0,0-0.1l1.6-4.8c0.1-0.2-0.1-0.4-0.2-0.4c0,0,0,0,0,0 M39.5,17.6c-0.1-0.2-0.3-0.3-0.5-0.2
		c0,0,0,0,0,0l-2.2,1c0-0.1-0.1-0.3-0.2-0.4l2-3.3c0.1-0.2,0-0.4-0.1-0.5c-0.2-0.1-0.4-0.1-0.5,0.1c0,0,0,0,0,0l-2,3.3h0
		c0,0,0,0,0-0.1l-0.3-4.1c0-0.2-0.2-0.3-0.4-0.3c0,0,0,0,0,0c-0.2,0-0.4,0.2-0.3,0.4l0.3,4.1l0,0L32.3,15c-0.1-0.1-0.4-0.1-0.5,0
		c-0.1,0.1-0.1,0.4,0,0.5l3,2.7l-3.9-0.6c-0.2,0-0.4,0.1-0.4,0.3c0,0.2,0.1,0.4,0.3,0.4c0,0,0,0,0,0l4,0.6c0.1,0.4,0.5,0.7,1,0.7h0
		c0.3,0,0.7-0.2,0.8-0.5h0.1l2.5-1.2C39.5,17.9,39.6,17.7,39.5,17.6 M6.2,32.3L6.2,32.3c-0.2,0-0.4,0.2-0.4,0.3l-0.1,3.4
		c-0.1,0-0.2-0.1-0.3-0.1H5.3c-0.1,0-0.1,0-0.2,0l-1.8-3c-0.1-0.2-0.3-0.2-0.5-0.1c0,0,0,0,0,0c-0.2,0.1-0.2,0.3-0.1,0.5
		c0,0,0,0,0,0l1.9,3c0,0.1-0.1,0.1-0.1,0.2l-3.5-1.4c-0.2-0.1-0.4,0.1-0.5,0.3c0,0.2,0,0.3,0.2,0.4l3.8,1.5l0,0l-3.6,1.4
		c-0.2,0.1-0.3,0.3-0.2,0.5c0.1,0.1,0.2,0.2,0.4,0.2h0.1l3.7-1.4l-2.3,3.2c-0.1,0.2-0.1,0.4,0.1,0.5c0.1,0,0.1,0.1,0.2,0.1
		c0.1,0,0.2-0.1,0.3-0.2l2.3-3.3c0.1-0.1,0.1-0.2,0-0.3c0.3,0,0.5-0.1,0.7-0.3c0.2-0.2,0.3-0.5,0.3-0.8c0,0,0-0.1,0-0.1
		c0-0.1,0-0.1,0-0.2l0.1-4.1C6.5,32.5,6.3,32.3,6.2,32.3C6.1,32.3,6.1,32.3,6.2,32.3 M56.1,27.1l-3.4,1.7l-0.1-0.2l1.8-3.5
		c0.1-0.2,0-0.4-0.1-0.5c0,0,0,0,0,0c-0.2-0.1-0.4,0-0.5,0.1c0,0,0,0,0,0l-1.8,3.4H52h-0.1l-1-3.5c0-0.2-0.2-0.3-0.4-0.3
		c0,0,0,0,0,0c-0.2,0-0.3,0.2-0.3,0.4c0,0,0,0,0,0l1,3.5c0,0-0.1,0.1-0.1,0.1l-1.5-1.3c-0.1-0.1-0.4-0.1-0.5,0c0,0,0,0,0,0
		c-0.1,0.1-0.1,0.4,0,0.5l1.7,1.4c0,0.5,0.4,0.9,0.9,1h0.1c0,0,0.1,0.1,0.1,0.1l4,0.8h0c0.2,0,0.3-0.1,0.4-0.3
		c0-0.2-0.1-0.4-0.3-0.4c0,0,0,0,0,0l-3.3-0.7c0-0.1,0.1-0.1,0.1-0.2l0,0l3.7-1.8c0.2-0.1,0.3-0.3,0.2-0.5
		C56.6,27.1,56.3,27,56.1,27.1C56.2,27.1,56.2,27.1,56.1,27.1 M128.3,9.5l-3.7,0.8c-0.1-0.2-0.2-0.3-0.3-0.4l2.1-3
		c0.1-0.1,0-0.2,0-0.3c0,0,0,0,0,0c-0.1-0.1-0.2-0.1-0.3,0l-2.1,3c-0.2-0.1-0.3-0.1-0.5-0.1l0.1-3.5c0-0.1-0.1-0.2-0.2-0.2
		c0,0,0,0,0,0l0,0c-0.1,0-0.2,0.1-0.2,0.2c0,0,0,0,0,0L123,9.6c-0.3,0.1-0.6,0.3-0.7,0.5c-0.4,0.6-0.3,1.4,0.3,1.8c0,0,0,0,0,0
		c0.1,0,0.1,0.1,0.2,0.1c0.1,0.1,0.3,0.1,0.4,0.1l2,3.1c0,0.1,0.1,0.1,0.2,0.1c0,0,0.1,0,0.1,0c0.1-0.1,0.1-0.2,0.1-0.3l-1.9-3
		c0.3-0.1,0.6-0.2,0.8-0.5l3.3,1.5h0.1c0.1,0,0.2-0.1,0.2-0.2c0-0.1,0-0.1-0.1-0.2l-3.2-1.5c0.1-0.2,0.1-0.4,0.1-0.6l3.7-0.8
		c0.1,0,0.2-0.1,0.2-0.2c0,0,0,0,0,0C128.4,9.6,128.4,9.5,128.3,9.5C128.3,9.5,128.2,9.5,128.3,9.5 M88.4,21.5l-3.5,0.3
		c0-0.2-0.1-0.4-0.2-0.6l2.9-2.5c0.1-0.1,0.1-0.2,0-0.3c-0.1-0.1-0.2-0.1-0.3,0l-2.9,2.5c-0.2-0.1-0.3-0.2-0.5-0.2l0.4-3.6
		c0-0.1-0.1-0.2-0.2-0.2s-0.2,0.1-0.2,0.2c0,0,0,0,0,0l-0.4,3.5c-0.2,0-0.4,0.1-0.5,0.1l-1.7-3.2c-0.1-0.1-0.2-0.1-0.3-0.1
		c-0.1,0-0.1,0.2-0.1,0.3c0,0,0,0,0,0l1.7,3.3c-0.5,0.5-0.5,1.3,0,1.9c0.2,0.2,0.5,0.4,0.8,0.4h0.2c0.1,0,0.3,0,0.4-0.1l3.3,1.8h0.1
		c0.1,0,0.1,0,0.2-0.1c0-0.1,0-0.2-0.1-0.3l-3-1.7c0.2-0.2,0.4-0.5,0.4-0.8l3.5-0.2c0.1,0,0.2-0.1,0.2-0.2
		C88.6,21.6,88.5,21.6,88.4,21.5 M73.2,21.2l-4.7,0.1c0-0.1,0-0.1-0.1-0.1c0,0,0.1,0,0.1-0.1l3.8-2.9c0.2-0.1,0.2-0.3,0.1-0.5
		c-0.1-0.2-0.4-0.2-0.5-0.1l-3.8,2.9c-0.1,0-0.1,0.1-0.1,0.2l0,0l0,0l0.8-4.7c0-0.2-0.1-0.4-0.3-0.4c0,0,0,0,0,0
		c-0.2,0-0.4,0.1-0.4,0.3l-0.8,4.7c0,0,0,0,0,0.1h-0.1l-2-4.4c-0.1-0.2-0.3-0.3-0.5-0.2c0,0,0,0,0,0c-0.2,0.1-0.3,0.3-0.2,0.5
		l1.9,4.4c0,0,0.1,0.1,0.1,0.1c-0.1,0.1-0.1,0.3-0.2,0.4c-0.1,0.6,0.3,1.1,0.9,1.2h0.1c0,0.1,0,0.3,0.2,0.4l4.1,2.5
		c0.1,0,0.1,0,0.2,0c0.1,0,0.3-0.1,0.3-0.2c0.1-0.2,0-0.4-0.1-0.5c0,0,0,0,0,0l-4-2.5c0.1-0.1,0.3-0.2,0.3-0.4l4.9-0.1
		c0.2,0,0.4-0.2,0.4-0.3c0,0,0,0,0,0C73.5,21.4,73.4,21.2,73.2,21.2 M71.3,53.5l-4.6-1.4c-0.1,0-0.1,0-0.2,0c0,0,0,0,0-0.1l2.9-1.5
		c0.2-0.1,0.3-0.3,0.2-0.5c-0.1-0.2-0.3-0.3-0.5-0.2l0,0l-2.9,1.5l0,0L66,51.3l1.3-2c0.1-0.2,0-0.4-0.1-0.5c-0.2-0.1-0.4,0-0.5,0.1
		l-1.5,2.3c-0.4,0.2-0.7,0.6-0.7,1c0,0.2,0.1,0.3,0.2,0.5c0,0,0,0.1,0,0.1l0.1,5.1c0,0.2,0.2,0.3,0.4,0.3l0,0c0.2,0,0.4-0.2,0.3-0.4
		l-0.2-4.6h0.2h0.1l2.9,3.8c0.1,0.1,0.2,0.1,0.3,0.1c0.1,0,0.2,0,0.2-0.1c0.2-0.1,0.2-0.3,0.1-0.5c0,0,0,0,0,0l-2.8-3.7
		c0,0,0.1-0.1,0.1-0.2c0,0,0.1,0,0.1,0l4.6,1.3h0.1c0.2,0,0.3-0.1,0.3-0.3C71.6,53.7,71.5,53.5,71.3,53.5
		C71.3,53.4,71.3,53.4,71.3,53.5 M48,85.4L44,84.7c-0.2-0.3-0.5-0.4-0.8-0.4h-0.1c-0.3,0-0.5,0.1-0.7,0.3c0,0-0.1,0.1-0.1,0.1
		l-3.6,1.6c-0.2,0.1-0.3,0.3-0.2,0.5c0,0,0,0,0,0c0,0.1,0.1,0.2,0.3,0.2c0.1,0,0.1,0,0.2,0l3.2-1.4c0,0.1,0,0.1,0,0.2l-2.1,3.2
		c-0.1,0.2-0.1,0.4,0.1,0.5h0.1c0.1,0,0.3,0,0.4-0.2l2-3.1h0.1l0.2,3.7c0,0.2,0.1,0.3,0.3,0.3h0.1c0.2,0,0.4-0.2,0.3-0.4l-0.2-3.7
		h0.1l2.8,2.8c0.1,0.1,0.1,0.1,0.2,0.1c0.1,0,0.2,0,0.3-0.1c0.1-0.1,0.1-0.4,0-0.5l-2.8-2.8c0-0.1,0-0.1,0-0.2l3.6,0.7l0,0
		c0.2,0,0.4-0.1,0.4-0.3C48.3,85.6,48.2,85.5,48,85.4C48,85.4,48,85.4,48,85.4"/>
	<path fill="#61A373" d="M6.1,56.5l-1.5,4.3c-0.1,0.2,0,0.4,0.2,0.5c0,0,0.1,0,0.1,0c0.2,0,0.3-0.1,0.3-0.3l1.5-4.3H7l1.1,4.3
		c0,0.2,0.2,0.3,0.4,0.3h0.1c0.2,0,0.3-0.2,0.3-0.4c0,0,0,0,0,0l-1.1-4.4c0.1-0.1,0.2-0.1,0.3-0.2c0.3-0.3,0.4-0.7,0.4-1.1
		c0-0.8-0.7-1.4-1.5-1.4H6.8c-0.2,0-0.5,0.1-0.6,0.2L3,51.1c-0.1-0.1-0.4-0.1-0.5,0c-0.1,0.1-0.1,0.4,0,0.5l3.1,2.7
		c-0.1,0.1-0.1,0.2-0.2,0.3L1,54.1c-0.2,0-0.4,0.1-0.4,0.3c0,0.2,0.1,0.4,0.3,0.4c0,0,0,0,0,0l4.4,0.6c0,0.1,0,0.2,0.1,0.3l-3.9,2
		c-0.2,0.1-0.2,0.3-0.2,0.5c0.1,0.1,0.2,0.2,0.3,0.2c0.1,0,0.1,0,0.2,0l4-2.1L6.1,56.5 M10.2,77.9c0.7-0.4,1-1.3,0.7-2
		c-0.3-0.5-0.8-0.9-1.4-0.8H9.4H9.3l-3.5-3c-0.1-0.1-0.4-0.1-0.5,0c0,0,0,0,0,0c-0.1,0.1-0.1,0.4,0,0.5c0,0,0,0,0,0l3.2,2.8
		c-0.1,0-0.1,0.1-0.2,0.2c-0.1,0.1-0.2,0.2-0.2,0.4l-4.4-0.6c-0.2,0-0.4,0.1-0.4,0.3c0,0,0,0,0,0c0,0.2,0.1,0.4,0.3,0.4L8,76.7
		C8,76.8,8,76.9,8,77l-4.1,2.2c-0.2,0.1-0.2,0.3-0.2,0.5c0.1,0.1,0.2,0.2,0.3,0.2c0.1,0,0.1,0,0.2,0l4.2-2.2
		c0.1,0.1,0.1,0.1,0.2,0.2l-1.5,4.2c-0.1,0.2,0,0.4,0.2,0.5h0.1c0.2,0,0.3-0.1,0.4-0.3l1.5-4.2c0.1,0,0.2,0,0.3,0h0.1l1.1,4.2
		c0,0.2,0.2,0.3,0.4,0.3H11c0.2,0,0.3-0.2,0.3-0.4L10.2,77.9z M11.6,20.4c-0.2,0-0.4,0.1-0.4,0.3l-0.9,4.2c-0.2-0.1-0.4-0.1-0.6-0.1
		l0,0l-1.6-4.2c-0.1-0.2-0.3-0.3-0.5-0.2c-0.2,0.1-0.3,0.3-0.2,0.5c0,0,0,0,0,0L9,25l-0.2,0.2l-4-2.6c-0.2-0.1-0.4-0.1-0.5,0.1
		c-0.1,0.2-0.1,0.4,0.1,0.5l3.9,2.5c0,0.1-0.1,0.2-0.1,0.2l-4.4,0.8c-0.2,0-0.3,0.2-0.3,0.4c0,0.2,0.2,0.3,0.4,0.3H4l4.3-0.7
		c0,0.1,0.1,0.2,0.1,0.3l-3.1,2.9c-0.1,0.1-0.1,0.4,0,0.5c0.1,0.1,0.2,0.1,0.3,0.1c0.1,0,0.2,0,0.3-0.1l3.1-2.9
		c0.2,0.1,0.5,0.2,0.8,0.2h0.1c0.8-0.1,1.5-0.8,1.4-1.6c0-0.3-0.1-0.5-0.3-0.8l1-4.6C12,20.6,11.8,20.4,11.6,20.4
		C11.7,20.4,11.6,20.4,11.6,20.4 M74.7,44.1l-4.5,1.5l0,0l-0.1-0.1l2.2-4.1c0.1-0.2,0-0.4-0.1-0.5c-0.2-0.1-0.4,0-0.5,0.1l-2.1,4
		L69.3,45l-0.4-4.3c0-0.2-0.2-0.3-0.4-0.3c-0.2,0-0.3,0.2-0.3,0.3l0.3,4.2c-1,0.1-1.7,1-1.6,2c0.1,0.9,0.9,1.6,1.8,1.6h0.1
		c0.2,0,0.4-0.1,0.6-0.2l2.6,3.1c0.1,0.1,0.2,0.1,0.3,0.1c0.1,0,0.2,0,0.2-0.1c0.1-0.1,0.1-0.4,0-0.5l-2.6-3
		c0.2-0.2,0.3-0.4,0.4-0.7l4.2,1.3h0.1c0.2,0,0.4-0.1,0.4-0.3c0-0.2-0.1-0.3-0.3-0.4l-4.2-1.3c0-0.1,0-0.2,0-0.2l4.5-1.5
		c0.2-0.1,0.3-0.3,0.2-0.5v0C75.2,44.2,75,44.1,74.7,44.1C74.8,44.1,74.8,44.1,74.7,44.1 M100,4.3l-3.5,1.3c0-0.3-0.1-0.7-0.3-0.9
		l2.3-3c0.1-0.1,0.1-0.2,0-0.3c-0.1-0.1-0.2-0.1-0.3,0c0,0,0,0,0,0l-2.2,3c-0.2-0.1-0.4-0.2-0.6-0.2l0.1-3.9c0-0.1-0.1-0.2-0.2-0.2
		c0,0,0,0,0,0c-0.1,0-0.2,0.1-0.2,0.2l-0.1,4c-0.2,0-0.4,0.1-0.5,0.2l-2.6-2.9c-0.1-0.1-0.2-0.1-0.3,0c-0.1,0.1-0.1,0.2,0,0.3
		c0,0,0,0,0,0L94,4.7c-0.1,0.1-0.2,0.3-0.2,0.5l-3.7-0.9c-0.1,0-0.2,0-0.3,0.1c0,0.1,0,0.2,0.1,0.2c0,0,0,0,0,0l3.7,0.9
		c0,0.3,0.1,0.6,0.4,0.9c0.5,0.6,1.4,0.6,2,0.1c0,0,0,0,0,0c0.1,0,0.1-0.1,0.2-0.2c0.1-0.1,0.2-0.3,0.2-0.4l3.7-1.3
		c0.1,0,0.1-0.2,0.1-0.3C100.2,4.3,100.1,4.3,100,4.3C100,4.3,100,4.3,100,4.3 M39.7,82.8l-3.8-1.2c0-0.1,0-0.2,0-0.2
		c0-0.8-0.7-1.4-1.5-1.4h-0.1c-0.4,0-0.7,0.2-1,0.5c-0.1,0.1-0.2,0.2-0.2,0.3c-0.1,0-0.1,0-0.2,0l-4.6,1.4c-0.2,0.1-0.3,0.3-0.3,0.4
		c0,0.2,0.2,0.3,0.4,0.3h0.1l4.4-1.3c0,0.2,0.1,0.3,0.1,0.5l-3.1,3.7c-0.1,0.1-0.1,0.4,0,0.5c0,0,0,0,0,0c0.1,0.1,0.1,0.1,0.2,0.1
		c0.1,0,0.2,0,0.3-0.1l3-3.5l0.2,0.1l0,0l-0.3,4.8c0,0.2,0.1,0.4,0.3,0.4l0,0c0.2,0,0.3-0.1,0.4-0.3l0.4-4.6h0.2h0.2l2.8,3.4
		c0.1,0.1,0.2,0.1,0.3,0.1c0.1,0,0.2,0,0.2-0.1c0.2-0.1,0.2-0.3,0.1-0.5c0,0,0,0,0,0l-2.6-3.3c0.1-0.1,0.1-0.1,0.2-0.2l0.1-0.2
		l3.8,1.2h0.1c0.2,0,0.3-0.1,0.3-0.3C40,83,39.9,82.8,39.7,82.8 M3,46.2h4.5c0,0.1,0.1,0.2,0.1,0.3l-3.2,3c-0.1,0.1-0.2,0.4,0,0.5
		c0.1,0.1,0.2,0.1,0.3,0.1c0.1,0,0.2,0,0.3-0.1l3.2-2.9c0.1,0.1,0.2,0.1,0.3,0.1l-1,4.2c0,0.2,0.1,0.4,0.3,0.4c0,0,0,0,0,0h0.1
		c0.2,0,0.3-0.1,0.4-0.3l1-4.3c0.3,0,0.6-0.2,0.9-0.5c0.6-0.6,0.5-1.6-0.1-2.1c-0.1-0.1-0.2-0.1-0.3-0.2L8,40.2
		C8,40,7.7,39.9,7.6,39.9c-0.2,0.1-0.3,0.3-0.2,0.5l1.5,3.9c-0.3,0-0.5,0.1-0.7,0.3L4.6,42c-0.2-0.1-0.4,0-0.5,0.2
		c-0.1,0.1,0,0.3,0.1,0.4l3.4,2.5c-0.1,0.1-0.1,0.3-0.1,0.4H3l0,0c-0.2,0-0.4,0.2-0.4,0.4l0,0C2.6,46.1,2.8,46.3,3,46.2 M71.1,65.8
		l-4.6,0.9c0-0.1,0-0.1-0.1-0.2l3.2-3.2c0.1-0.1,0.1-0.4,0-0.5c0,0,0,0,0,0c-0.1-0.1-0.4-0.1-0.5,0c0,0,0,0,0,0L66,65.9
		c-0.3-0.2-0.6-0.3-0.9-0.3h-0.1c-0.8,0-1.5,0.7-1.4,1.5c0,0.4,0.2,0.8,0.5,1.1l-0.9,4.3c0,0.2,0.1,0.4,0.3,0.4h0.1
		c0.2,0,0.3-0.1,0.3-0.3l0.8-4.1c0.1,0,0.2,0,0.3,0h0.1c0.1,0,0.2,0,0.3,0l1.7,4.2c0.1,0.1,0.2,0.2,0.3,0.2c0,0,0.1,0,0.1,0
		c0.2-0.1,0.3-0.3,0.2-0.5l-1.7-4.3l0.1-0.1l0,0l0,0l4,2.6c0.1,0,0.1,0.1,0.2,0.1c0.1,0,0.2-0.1,0.3-0.2c0.1-0.2,0.1-0.4-0.1-0.5
		c0,0,0,0,0,0l-3.9-2.6h-0.1c0,0,0,0,0-0.1l4.6-0.9c0.2,0,0.3-0.2,0.3-0.4c0,0,0,0,0,0C71.5,66,71.3,65.8,71.1,65.8
		C71.1,65.9,71.1,65.9,71.1,65.8 M44.4,7.4l-2.9,2.8c-0.2-0.2-0.4-0.4-0.6-0.5l0.9-4.2c0-0.2-0.1-0.4-0.3-0.4c0,0,0,0,0,0
		c-0.2,0-0.4,0.1-0.4,0.3l-0.9,4.2c-0.1,0-0.2,0-0.3,0.1L38,5.4c-0.1-0.2-0.3-0.3-0.5-0.2c-0.2,0.1-0.3,0.3-0.2,0.5l0,0l1.9,4.3l0,0
		c0,0-0.1,0.1-0.1,0.1l-4.2-1.8c-0.2-0.1-0.4-0.1-0.5,0.1c-0.1,0.2-0.1,0.4,0.1,0.5c0,0,0.1,0,0.1,0l4.2,1.8c0,0.1,0,0.2,0,0.2
		l-4.4,0.8c-0.2,0-0.3,0.2-0.3,0.4c0,0.2,0.2,0.3,0.4,0.3l0,0h0l4.5-0.8c0.3,0.5,0.8,0.8,1.3,0.8h0.1c0.8,0,1.5-0.7,1.4-1.6
		c0,0,0,0,0-0.1l3.1-3.1c0.1-0.1,0.1-0.4,0-0.5c0,0,0,0,0,0C44.7,7.2,44.5,7.2,44.4,7.4C44.4,7.3,44.4,7.3,44.4,7.4 M59.1,8.7
		l-3.8,1.6c-0.1-0.2-0.2-0.4-0.4-0.6l2.5-3.6c0.1-0.2,0.1-0.4-0.1-0.5c0,0,0,0,0,0c-0.2-0.1-0.4-0.1-0.5,0.1l-2.5,3.7L54,9.3
		l-0.1-4.7c0-0.2-0.2-0.4-0.4-0.4c-0.2,0-0.4,0.2-0.4,0.4c0,0,0,0,0,0l0.1,4.8l-0.1,0.1l-3.2-3.3c-0.1-0.1-0.4-0.1-0.5,0
		c-0.1,0.1-0.1,0.4,0,0.5l0,0l3.2,3.2l-0.1,0.2l-4.3-0.9c-0.2,0-0.4,0.1-0.4,0.3c0,0.2,0.1,0.4,0.3,0.4c0,0,0,0,0,0l4.3,0.9l0,0
		c0,0.8,0.7,1.4,1.5,1.4h0.1c0.4,0,0.7-0.2,1-0.5c0.2-0.2,0.3-0.4,0.3-0.6l4.1-1.7c0.2-0.1,0.3-0.3,0.2-0.5S59.2,8.7,59.1,8.7
		 M57.5,73.7l-4.8,0.6l0,0c-0.2-0.3-0.5-0.4-0.8-0.4h-0.1c-0.4,0-0.8,0.3-0.9,0.7l-4,3.3c-0.1,0.1-0.1,0.4,0,0.5c0,0,0,0,0,0
		c0.1,0.1,0.2,0.1,0.3,0.1c0.1,0,0.2,0,0.2-0.1l3.6-3c0,0.1,0.1,0.1,0.1,0.2L49.9,80c-0.1,0.2,0.1,0.4,0.2,0.4c0,0,0,0,0,0h0.1
		c0.2,0,0.3-0.1,0.3-0.3l1.2-4.2h0.1l1.6,4.3c0,0.1,0.2,0.2,0.3,0.2c0,0,0.1,0,0.1,0c0.2,0,0.3-0.2,0.3-0.4c0,0,0-0.1,0-0.1
		l-1.6-4.3l0,0l0,0l4.3,2.2c0.1,0,0.1,0,0.2,0c0.1,0,0.3-0.1,0.3-0.2c0.1-0.2,0-0.4-0.2-0.5c0,0,0,0,0,0L52.8,75l0,0v-0.1l4.7-0.6
		c0.2,0,0.3-0.2,0.3-0.4C57.8,73.8,57.6,73.6,57.5,73.7"/>
	<path fill="#61A373" d="M45.1,46.4h0.8c0-0.1,0-0.2,0-0.3L45.1,46.4L45.1,46.4z"/>
	<path fill="#61A373" d="M41.7,41.9L41.7,41.9v0.3V41.9z"/>
	<path fill="#61A373" d="M38.9,51.9c0.1,0,0.1,0,0.2,0.1l0.9-2.5l0,0l0,0c0.1-0.2,0.3-0.2,0.4-0.2c0,0,0,0,0,0
		c0.2,0.1,0.3,0.2,0.2,0.4l0,0l-0.9,2.5c0.1,0,0.2,0,0.3,0l0.1-0.7l0,0c0-0.2,0.2-0.3,0.4-0.2c0,0,0,0,0,0c0.2,0,0.3,0.2,0.3,0.4
		c0,0,0,0,0,0l0,0l-0.1,0.5h0.2l0.2-2.1l0,0c0-0.2,0.2-0.3,0.4-0.3c0,0,0,0,0,0c0.2,0,0.3,0.2,0.3,0.4l0,0L41.7,51
		c0.1,0,0.1,0,0.2,0c0.2,0,0.3,0.2,0.3,0.3c0,0,0,0,0,0l0,0v0.8h0.1l-0.2-1.4l0,0l0,0c0-0.2,0.1-0.3,0.3-0.3c0,0,0,0,0,0
		c0.1,0,0.2,0,0.2,0.1L42,48.5l0,0c0-0.2,0.1-0.4,0.2-0.4c0,0,0,0,0,0c0.2-0.1,0.4,0,0.4,0.2l0,0l1.1,3.1l0.3-0.2l-0.5-0.9l0,0l0,0
		c-0.1-0.2,0-0.4,0.2-0.4c0.2-0.1,0.4,0,0.5,0.1c0,0,0,0,0,0l0,0l0.4,0.7c0.1-0.1,0.2-0.2,0.3-0.3l-1.7-1.5l0,0
		c-0.1-0.1-0.1-0.3,0-0.5c0,0,0,0,0,0c0.1-0.1,0.3-0.1,0.5,0l0,0l1.6,1.4c0.1-0.1,0.2-0.3,0.2-0.4l-1.5-0.8l0,0
		c-0.2-0.1-0.2-0.3-0.1-0.5c0.1-0.2,0.3-0.2,0.4-0.1c0,0,0,0,0,0l0,0l1.4,0.7c0-0.1,0.1-0.3,0.1-0.4l-0.5-0.1l0,0
		c-0.2-0.1-0.3-0.2-0.2-0.4c0-0.2,0.2-0.3,0.4-0.3l0,0l0.4,0.1c0-0.1,0-0.3,0-0.5h-2.3c-0.2,0-0.4-0.2-0.4-0.3
		c0-0.2,0.2-0.4,0.4-0.4l0,0h1.2c-0.1,0-0.2-0.1-0.3-0.2c-0.1-0.2,0-0.4,0.2-0.4c0,0,0,0,0,0l0,0l0.8-0.3c-0.3-0.8-0.7-1.4-1.3-2
		l-0.6,1.1l0,0l0,0c-0.1,0.2-0.3,0.2-0.5,0.1s-0.2-0.3-0.1-0.5l0,0l0.7-1.3c-0.2-0.1-0.4-0.3-0.6-0.4l-0.8,2.3l0,0
		c-0.1,0.2-0.3,0.3-0.4,0.2c0,0,0,0,0,0c-0.2-0.1-0.3-0.2-0.2-0.4c0,0,0,0,0,0l0,0l0.8-2.4l-0.3-0.1l-0.1,1.3l0,0
		c0,0.2-0.2,0.3-0.4,0.3c0,0,0,0,0,0c-0.2,0-0.3-0.2-0.3-0.4c0,0,0,0,0,0l0,0v-0.5C41.5,43,41.4,43,41.3,43c-0.2,0-0.3-0.1-0.3-0.3
		c0,0,0,0,0,0l0,0v-0.8h-0.2h-0.4l0.4,1.1l0,0c0.1,0.2-0.1,0.4-0.2,0.4c-0.2,0-0.3,0-0.4-0.2l0,0l-0.5-1.3c-0.3,0.1-0.5,0.1-0.8,0.3
		l0.5,0.6l0,0c0.1,0.1,0.1,0.3-0.1,0.4c0,0,0,0,0,0c0,0-0.1,0.1-0.1,0.1l0.6,0.6l0,0c0.1,0.2,0.1,0.4-0.1,0.5
		c-0.1,0.1-0.3,0.1-0.4,0l0,0l-0.8-0.9c-0.1,0.1-0.3,0.1-0.4,0l0,0l-0.6-0.4l-0.2,0.2l1.2,0.8l0,0c0.2,0.1,0.2,0.3,0.1,0.5
		c-0.1,0.2-0.3,0.2-0.5,0.1l0,0l-1.3-0.8l-0.2,0.2l0.2,0.1l0,0c0.2,0.1,0.2,0.3,0.1,0.4c0,0,0,0,0,0c0,0.1-0.1,0.2-0.2,0.2l2.8,0.7
		l0,0c0.2,0.1,0.3,0.2,0.2,0.4c0,0,0,0,0,0c-0.1,0.2-0.3,0.4-0.4,0.3l0,0l-1-0.3C38,45.9,37.9,46,37.8,46l0,0l-2.1-0.2
		c0,0.2-0.1,0.4-0.1,0.7l2.1-0.3l0,0c0.2,0,0.3,0.1,0.3,0.3v0c0,0.2-0.1,0.5-0.3,0.5l0,0l-2.1,0.3c0,0.1,0,0.1,0,0.2l1.2-0.3l0,0
		c0.2,0,0.3,0.1,0.4,0.3c0,0,0,0,0,0c0,0.2-0.1,0.4-0.2,0.4l0,0l-1.2,0.3c0,0.1,0.1,0.3,0.1,0.4l0.5-0.2l0,0c0.2-0.1,0.4,0,0.5,0.2
		c0.1,0.2,0,0.4-0.2,0.5l0,0l0,0L36,49.1c0,0.1,0.1,0.2,0.1,0.2l2-1.3l0,0c0.2-0.1,0.4,0,0.4,0.1c0.1,0.2,0.1,0.4-0.1,0.5
		c0,0,0,0,0,0l0,0l-2,1.3c0.1,0.2,0.3,0.4,0.5,0.6l2.6-2.4l0,0c0.1-0.1,0.4-0.1,0.5,0.1c0.1,0.1,0.1,0.3,0,0.5c0,0,0,0,0,0l0,0
		L36,52.3c-2.2,3.9-4.1,7.9-5.7,12.1c-6.7,17.8-4.4,31.3-1.3,39.4c0.2,0.4,0.6,0.7,1.1,0.7c0.1,0,0.3,0,0.4-0.1
		c0.6-0.2,0.9-0.9,0.7-1.5C23.2,82.2,33.6,60.8,38.9,51.9"/>
	<path fill="#61A373" d="M42.9,51l0.1,0.8l0.1-0.1L42.9,51z"/>
	<g>
		<path fill="#526D61" d="M83,39.7h17.7c0.4,0,0.5,0.2,0.5,0.6l0,3.2c0,0.5-0.2,0.7-0.7,0.7H89.4c-0.2,0-0.4,0-0.5,0.1
			c-0.1,0.1-0.2,0.2-0.2,0.4v5.5c0,0.4,0.2,0.6,0.5,0.6h7.7c0.4,0,0.6,0.2,0.6,0.6v3.4c0,0.3-0.2,0.5-0.5,0.5h-7.8
			c-0.3,0-0.5,0.2-0.5,0.5v9.5c0,0.3-0.1,0.5-0.2,0.6c-0.1,0.1-0.4,0.2-0.7,0.2h-4.5c-0.3,0-0.5-0.1-0.6-0.2s-0.2-0.3-0.2-0.6v-25
			C82.4,40,82.6,39.7,83,39.7z"/>
		<path fill="#526D61" d="M114.4,60.5V48.1c0-0.5,0.3-0.8,0.9-0.8h3.8c0.3,0,0.5,0.1,0.6,0.2c0.1,0.1,0.2,0.3,0.2,0.6l-0.1,17.5
			c0,0.2-0.1,0.3-0.2,0.5c-0.1,0.1-0.2,0.2-0.4,0.2h-4.2c-0.4,0-0.5-0.2-0.5-0.6v-1.7c0-0.1,0-0.2-0.1-0.2c-0.1,0-0.2,0-0.3,0.1
			c-1,1-2,1.8-3,2.2c-1,0.4-2,0.7-3.2,0.7c-1.6,0-2.9-0.5-3.9-1.5c-1-1-1.5-2.4-1.5-4.2V48.1c0-0.6,0.3-0.9,0.9-0.9h4
			c0.4,0,0.7,0.2,0.7,0.7v12c0,0.8,0.2,1.4,0.7,1.9c0.4,0.5,1.1,0.7,1.8,0.7C111.9,62.6,113.2,61.9,114.4,60.5z"/>
		<path fill="#526D61" d="M124,66c-0.1-0.1-0.2-0.3-0.2-0.6V48c0-0.5,0.2-0.7,0.6-0.7h4.3c0.4,0,0.5,0.2,0.5,0.6v1.7
			c0,0.2,0.1,0.3,0.2,0.3c0.1,0,0.2,0,0.2-0.1c1-0.9,1.9-1.6,2.9-2.1c1-0.5,2-0.7,3.1-0.7c1.7,0,3.1,0.5,4.1,1.5
			c1,1,1.5,2.4,1.5,4.1v12.7c0,0.6-0.3,0.9-0.9,0.9h-4c-0.3,0-0.4-0.1-0.5-0.2c-0.1-0.1-0.1-0.3-0.1-0.6v-12c0-0.8-0.2-1.4-0.7-1.9
			c-0.4-0.4-1.1-0.7-1.9-0.7c-0.7,0-1.4,0.2-2,0.5c-0.6,0.4-1.3,0.9-1.9,1.7v12.2c0,0.3-0.1,0.5-0.2,0.6c-0.1,0.1-0.4,0.2-0.7,0.2
			h-3.8C124.3,66.1,124.1,66.1,124,66z"/>
		<path fill="#526D61" d="M157.4,65.4v-1c0-0.2-0.1-0.3-0.2-0.3c-0.1,0-0.2,0-0.3,0.1c-0.7,0.7-1.4,1.2-2.3,1.6
			c-0.8,0.4-1.8,0.6-2.9,0.6c-2.2,0-4-0.8-5.4-2.5c-1.4-1.7-2-4-2-7.2c0-1.9,0.3-3.7,1-5.2c0.7-1.5,1.6-2.7,2.8-3.5
			c1.2-0.8,2.5-1.2,3.9-1.2c0.9,0,1.8,0.2,2.5,0.5c0.7,0.3,1.5,0.8,2.2,1.4c0.2,0.1,0.3,0.2,0.4,0.2c0.2,0,0.2-0.2,0.2-0.5v-8.2
			c0-0.4,0.2-0.6,0.6-0.6h4.3c0.2,0,0.3,0.1,0.4,0.2c0.1,0.1,0.2,0.3,0.2,0.5v25c0,0.3-0.1,0.5-0.2,0.6s-0.3,0.2-0.6,0.2h-3.8
			C157.7,66.1,157.4,65.9,157.4,65.4z M155.7,50.9c-0.5-0.3-1.1-0.4-1.8-0.4c-1.3,0-2.3,0.5-3,1.5c-0.7,1-1.1,2.6-1.1,4.8
			c0,2.2,0.4,3.8,1.1,4.8c0.7,1,1.7,1.5,3,1.5c0.9,0,1.8-0.3,2.5-0.9c0.7-0.6,1-1.4,1-2.2v-7.8C156.8,51.6,156.3,51.2,155.7,50.9z"
			/>
		<path fill="#526D61" d="M171.5,66.5c-1.8,0-3.2-0.5-4.2-1.4c-1-1-1.6-2.2-1.6-3.8c0-2,0.9-3.6,2.7-4.8c1.8-1.2,4.3-1.9,7.5-1.9
			l1.3-0.1c0.1,0,0.3,0,0.4-0.1c0.1-0.1,0.2-0.2,0.2-0.4v-0.7c0-0.9-0.3-1.6-0.8-2.1c-0.5-0.5-1.3-0.7-2.2-0.7
			c-1.7,0-2.9,0.7-3.7,2.1c-0.1,0.2-0.2,0.4-0.5,0.4c-0.1,0-0.2,0-0.3,0l-3.6-0.8c-0.2,0-0.3-0.2-0.3-0.4c0-0.1,0-0.3,0.1-0.5
			c0.6-1.4,1.6-2.4,3-3.1c1.5-0.7,3.3-1,5.4-1c2.8,0,4.9,0.5,6.1,1.5s1.9,2.5,1.9,4.4v12.5c0,0.3,0,0.5-0.1,0.6s-0.3,0.2-0.5,0.2
			h-3.7c-0.2,0-0.4-0.1-0.5-0.2c-0.1-0.2-0.2-0.4-0.2-0.7l0-0.8c0-0.2-0.1-0.3-0.3-0.3c-0.1,0-0.3,0.1-0.5,0.3
			C175.6,65.8,173.7,66.5,171.5,66.5z M177.7,57.3c-0.1-0.1-0.2-0.1-0.4-0.1l-1,0.1c-1.4,0.1-2.6,0.4-3.6,1
			c-1.1,0.6-1.6,1.4-1.6,2.4c0,0.7,0.2,1.3,0.7,1.7c0.5,0.4,1.2,0.6,2.1,0.6c1.1,0,2-0.3,2.8-1c0.8-0.6,1.2-1.2,1.2-1.9v-2.3
			C177.8,57.5,177.8,57.4,177.7,57.3z"/>
		<path fill="#526D61" d="M200.6,48.5c1.4,1.1,2.3,2.3,2.8,3.8c0,0.2,0.1,0.3,0.1,0.4c0,0.2-0.2,0.3-0.5,0.4l-3.7,0.4h-0.1
			c-0.2,0-0.4-0.1-0.4-0.4c-0.4-0.9-0.9-1.5-1.3-1.9s-1.1-0.6-1.9-0.6c-1.3,0-2.3,0.5-3,1.6s-1.1,2.6-1.1,4.6c0,2.1,0.4,3.7,1.2,4.7
			c0.8,1,1.8,1.6,3.2,1.6c1,0,1.8-0.2,2.4-0.7c0.6-0.5,1.2-1.3,1.8-2.3c0.1-0.1,0.1-0.2,0.2-0.2c0.1,0,0.2,0,0.4,0l2.6,0.6
			c0.2,0,0.3,0.1,0.3,0.4l-0.1,0.3c-0.5,1.4-1.4,2.6-2.8,3.8c-1.4,1.1-3.2,1.7-5.4,1.7c-1.8,0-3.5-0.4-4.9-1.2
			c-1.4-0.8-2.6-2-3.4-3.4c-0.8-1.5-1.2-3.2-1.2-5.1c0-1.9,0.4-3.6,1.2-5.1c0.8-1.5,1.9-2.7,3.4-3.5c1.4-0.8,3.1-1.2,4.9-1.2
			C197.5,46.9,199.2,47.5,200.6,48.5z"/>
		<path fill="#526D61" d="M211.9,44.1c0,0.6-0.3,0.9-1,0.9h-3.8c-0.3,0-0.5-0.1-0.6-0.2c-0.1-0.1-0.2-0.3-0.2-0.6v-3.7
			c0-0.5,0.2-0.7,0.6-0.7h4.4c0.2,0,0.3,0.1,0.4,0.2c0.1,0.1,0.2,0.3,0.2,0.5V44.1z M211.9,65.3c0,0.3-0.1,0.5-0.2,0.7
			c-0.1,0.1-0.4,0.2-0.7,0.2h-3.7c-0.3,0-0.5-0.1-0.6-0.2s-0.2-0.3-0.2-0.6V48c0-0.5,0.2-0.7,0.6-0.7h4.3c0.4,0,0.5,0.2,0.5,0.6
			V65.3z"/>
		<path fill="#526D61" d="M219.5,65.3c-1.4-0.8-2.6-2-3.4-3.4c-0.8-1.5-1.2-3.1-1.2-5c0-1.9,0.4-3.7,1.2-5.2c0.8-1.5,2-2.7,3.4-3.5
			c1.5-0.8,3.1-1.2,4.9-1.2c1.9,0,3.5,0.4,5,1.3c1.4,0.8,2.6,2,3.4,3.5c0.8,1.5,1.2,3.2,1.2,5.1c0,1.9-0.4,3.5-1.2,5
			c-0.8,1.5-1.9,2.6-3.4,3.5c-1.4,0.8-3.1,1.2-5,1.2C222.6,66.5,221,66.1,219.5,65.3z M229.6,42.1c0,0.1,0.1,0.3,0.1,0.4
			c0,0.3-0.2,0.5-0.6,0.6l-8.2,2.2c-0.1,0-0.2,0-0.3,0c-0.1,0-0.2,0-0.3-0.1c-0.1-0.1-0.1-0.2-0.2-0.3l-0.4-1.2l-0.1-0.3
			c0-0.2,0.1-0.4,0.3-0.4l8.4-3.5c0,0,0.1,0,0.2,0c0.2,0,0.4,0.1,0.4,0.4L229.6,42.1z M227.5,61.3c0.7-1,1-2.6,1-4.6
			c0-2.1-0.3-3.6-1-4.7c-0.7-1.1-1.7-1.6-3-1.6c-1.3,0-2.3,0.5-3,1.6c-0.7,1.1-1,2.6-1,4.7c0,2,0.3,3.5,1,4.6c0.7,1,1.7,1.6,3,1.6
			C225.8,62.9,226.8,62.4,227.5,61.3z"/>
		<path fill="#526D61" d="M237.3,66c-0.1-0.1-0.2-0.3-0.2-0.6V48c0-0.5,0.2-0.7,0.6-0.7h4.3c0.4,0,0.5,0.2,0.5,0.6v1.7
			c0,0.2,0.1,0.3,0.2,0.3c0.1,0,0.2,0,0.2-0.1c1-0.9,1.9-1.6,2.9-2.1c1-0.5,2-0.7,3.1-0.7c1.7,0,3.1,0.5,4.1,1.5
			c1,1,1.5,2.4,1.5,4.1v12.7c0,0.6-0.3,0.9-0.9,0.9h-4c-0.3,0-0.4-0.1-0.5-0.2c-0.1-0.1-0.1-0.3-0.1-0.6v-12c0-0.8-0.2-1.4-0.7-1.9
			c-0.4-0.4-1.1-0.7-1.9-0.7c-0.7,0-1.4,0.2-2,0.5c-0.6,0.4-1.3,0.9-1.9,1.7v12.2c0,0.3-0.1,0.5-0.2,0.6c-0.1,0.1-0.4,0.2-0.7,0.2
			h-3.8C237.6,66.1,237.4,66.1,237.3,66z"/>
	</g>
	<g>
		<path fill="#526D61" d="M86.2,89.9c-0.1-0.1-0.1-0.1-0.1-0.2v-12c0-0.1,0-0.2,0.1-0.2c0,0,0.1-0.1,0.2-0.1h2.9
			c0.1,0,0.2,0,0.2,0.1c0.1,0,0.1,0.1,0.1,0.2l3,8c0,0.1,0.1,0.1,0.1,0.1s0.1-0.1,0.1-0.2l2.9-7.9c0.1-0.2,0.2-0.3,0.3-0.3h3
			c0.2,0,0.2,0.1,0.2,0.3v12c0,0.1,0,0.2-0.1,0.3S99.1,90,98.9,90h-1.8c-0.1,0-0.2,0-0.2-0.1c-0.1,0-0.1-0.1-0.1-0.2v-8.9
			c0-0.1,0-0.1-0.1-0.1c0,0,0,0-0.1,0.1l-3.2,8.9c0,0.2-0.2,0.3-0.3,0.3h-1.2c-0.2,0-0.3-0.1-0.4-0.3l-3.2-8.8c0-0.1,0-0.1-0.1-0.1
			c0,0-0.1,0-0.1,0.1v8.8c0,0.1,0,0.2-0.1,0.2c0,0-0.1,0.1-0.2,0.1h-1.4C86.3,90,86.2,90,86.2,89.9z"/>
		<path fill="#526D61" d="M103.9,79.3c0,0.1,0,0.2-0.1,0.3c-0.1,0.1-0.2,0.1-0.3,0.1H102c-0.1,0-0.2,0-0.3-0.1
			c0-0.1-0.1-0.1-0.1-0.3v-1.7c0-0.2,0.1-0.3,0.3-0.3h1.8c0.1,0,0.1,0,0.2,0.1c0,0.1,0.1,0.1,0.1,0.2V79.3z M103.9,89.6
			c0,0.1,0,0.2-0.1,0.3s-0.2,0.1-0.3,0.1H102c-0.1,0-0.2,0-0.3-0.1c0,0-0.1-0.1-0.1-0.2v-8.4c0-0.2,0.1-0.3,0.3-0.3h1.7
			c0.2,0,0.2,0.1,0.2,0.3V89.6z"/>
		<path fill="#526D61" d="M106.1,89.9c0,0-0.1-0.1-0.1-0.2v-8.4c0-0.2,0.1-0.3,0.2-0.3h1.7c0.1,0,0.2,0.1,0.2,0.3v0.9
			c0,0.1,0,0.1,0.1,0.1c0,0,0.1,0,0.1-0.1c0.5-0.5,1-0.8,1.5-1s1-0.3,1.5-0.3c0.8,0,1.5,0.2,2,0.7c0.5,0.5,0.7,1.1,0.7,1.9v6.2
			c0,0.2-0.1,0.4-0.4,0.4h-1.6c-0.1,0-0.2,0-0.2-0.1c0,0-0.1-0.1-0.1-0.2v-5.8c0-0.4-0.1-0.8-0.4-1c-0.2-0.2-0.6-0.4-1.1-0.4
			c-0.4,0-0.8,0.1-1.1,0.3c-0.3,0.2-0.7,0.5-1.1,0.9v6.1c0,0.1,0,0.2-0.1,0.3c-0.1,0.1-0.2,0.1-0.3,0.1h-1.5
			C106.2,90,106.2,90,106.1,89.9z"/>
		<path fill="#526D61" d="M118.3,87.4c0.2,0.4,0.5,0.7,0.9,0.9c0.4,0.2,0.8,0.3,1.2,0.3c0.5,0,0.9-0.1,1.3-0.3s0.7-0.5,1.1-0.9
			c0.1-0.1,0.1-0.1,0.1-0.1c0,0,0.1,0,0.2,0.1l1,0.5c0.1,0,0.1,0.1,0.1,0.2c0,0,0,0.1-0.1,0.2c-0.5,0.7-1.1,1.3-1.7,1.6
			c-0.6,0.3-1.4,0.5-2.3,0.5c-0.9,0-1.6-0.2-2.3-0.6c-0.7-0.4-1.2-0.9-1.6-1.6c-0.4-0.7-0.6-1.5-0.6-2.4c0-1,0.2-1.8,0.6-2.5
			c0.4-0.7,0.9-1.3,1.6-1.7s1.4-0.6,2.3-0.6c0.8,0,1.6,0.2,2.3,0.6c0.7,0.4,1.2,0.9,1.5,1.6c0.4,0.7,0.5,1.5,0.5,2.5v0.1
			c0,0.1,0,0.2-0.1,0.2c0,0-0.1,0.1-0.2,0.1h-6c-0.1,0-0.2,0.1-0.2,0.3C118,86.6,118.1,87.1,118.3,87.4z M122,84.6
			c0.1,0,0.2,0,0.2,0c0,0,0.1-0.1,0.1-0.2c0-0.4-0.1-0.7-0.2-1.1c-0.2-0.3-0.4-0.6-0.7-0.8s-0.7-0.3-1.1-0.3c-0.7,0-1.2,0.2-1.6,0.7
			c-0.4,0.5-0.6,1.1-0.6,1.7H122z"/>
		<path fill="#526D61" d="M126,89.7v-8.4c0-0.2,0.1-0.3,0.2-0.3h1.6c0.2,0,0.2,0.1,0.2,0.3v1c0,0.1,0,0.1,0.1,0.1c0,0,0.1,0,0.1-0.1
			c0.4-0.5,0.8-0.8,1.2-1.1c0.5-0.3,0.9-0.4,1.3-0.4c0.4,0,0.6,0.1,0.6,0.3v1.6c0,0.2-0.1,0.2-0.2,0.2c-0.3-0.1-0.7-0.1-1.1-0.1
			c-0.3,0-0.6,0.1-0.9,0.2c-0.3,0.2-0.6,0.4-0.8,0.6c-0.2,0.3-0.3,0.5-0.3,0.8v5.2c0,0.2-0.1,0.3-0.4,0.3h-1.5
			C126.1,90,126,89.9,126,89.7z"/>
		<path fill="#526D61" d="M134.5,89.6c-0.7-0.4-1.2-0.9-1.6-1.6c-0.4-0.7-0.6-1.5-0.6-2.4c0-0.9,0.2-1.7,0.6-2.5
			c0.4-0.7,0.9-1.3,1.6-1.7s1.5-0.6,2.3-0.6c0.9,0,1.6,0.2,2.3,0.6c0.7,0.4,1.2,1,1.6,1.7s0.6,1.5,0.6,2.4c0,0.9-0.2,1.7-0.6,2.4
			c-0.4,0.7-0.9,1.3-1.6,1.6s-1.5,0.6-2.3,0.6S135.1,90,134.5,89.6z M138.5,87.8c0.4-0.5,0.6-1.3,0.6-2.3c0-1-0.2-1.8-0.6-2.4
			c-0.4-0.6-0.9-0.8-1.6-0.8c-0.7,0-1.3,0.3-1.7,0.8c-0.4,0.6-0.6,1.3-0.6,2.4c0,1,0.2,1.8,0.6,2.3c0.4,0.5,0.9,0.8,1.7,0.8
			C137.5,88.6,138.1,88.4,138.5,87.8z"/>
		<path fill="#526D61" d="M147.6,82.5c-0.4-0.2-0.8-0.3-1.3-0.3c-0.5,0-0.9,0.1-1.2,0.3c-0.3,0.2-0.5,0.5-0.5,0.8
			c0,0.2,0.1,0.4,0.2,0.5c0.2,0.2,0.4,0.3,0.9,0.4l2,0.5c0.9,0.2,1.5,0.5,1.9,1c0.4,0.4,0.6,1,0.6,1.6c0,0.6-0.2,1.1-0.5,1.5
			s-0.8,0.8-1.4,1c-0.6,0.2-1.3,0.3-2,0.3c-0.9,0-1.8-0.2-2.5-0.5s-1.2-0.8-1.5-1.4c0-0.1-0.1-0.2-0.1-0.2c0-0.1,0-0.1,0.1-0.2
			l1-0.5c0.1,0,0.1-0.1,0.2-0.1c0,0,0.1,0,0.2,0.1c0.3,0.4,0.6,0.7,1,0.9s0.9,0.3,1.5,0.3c0.6,0,1.1-0.1,1.4-0.3
			c0.4-0.2,0.6-0.5,0.6-0.8c0-0.2-0.1-0.4-0.3-0.6s-0.5-0.3-1-0.4l-1.7-0.4c-0.9-0.2-1.5-0.5-1.9-0.9c-0.4-0.4-0.6-0.9-0.6-1.6
			c0-0.6,0.2-1,0.5-1.5c0.3-0.4,0.7-0.8,1.3-1c0.6-0.2,1.2-0.4,2-0.4c0.8,0,1.5,0.2,2.1,0.5c0.6,0.3,1.1,0.7,1.4,1.1
			c0.1,0.1,0.1,0.2,0.1,0.2c0,0.1,0,0.1-0.1,0.1l-1.1,0.5c-0.1,0-0.1,0-0.1,0c-0.1,0-0.2,0-0.2-0.1
			C148.2,82.9,147.9,82.7,147.6,82.5z"/>
	</g>
</g>
</svg>
