<?xml version="1.0" encoding="utf-8"?>
<!-- Generator: Adobe Illustrator 19.0.0, SVG Export Plug-In . SVG Version: 6.00 Build 0)  -->
<svg version="1.1" id="Capa_1" xmlns="http://www.w3.org/2000/svg" xmlns:xlink="http://www.w3.org/1999/xlink" x="0px" y="0px"
	 viewBox="0 0 28.4 23.9" style="enable-background:new 0 0 28.4 23.9;" xml:space="preserve">
<style type="text/css">
	.st0{fill:#67696E;}
</style>
<g>
	<g id="XMLID_38_">
		<path id="XMLID_39_" class="st0" d="M27.8,11.5l-4.2-3.8V3c0-1.8-2.2-2.6-3.5-1.4c-0.7,0.6-0.6,1.4-0.6,2.3l-3.7-3.4
			c-0.9-0.7-2.2-0.7-3,0c-4,3.7-8.1,7.4-12,10.9c-2.1,1.9,0.9,5.6,3.6,3.2v6.7c0,1.4,1.2,2.5,2.5,2.5h14.8c1.3,0,2.5-1.1,2.5-2.5
			v-6.8C26.9,17.1,29.7,13.3,27.8,11.5z M22.7,21.4c0,0.6-0.4,1.2-1.1,1.2H6.8c-0.6,0-1.2-0.5-1.2-1.2v-8l8.6-7.8l8.4,7.7V21.4z
			 M25.3,13.9L14.2,3.8L3.1,13.9c-0.8,0.7-2.3-0.6-1.5-1.3c4-3.7,8-7.4,12-10.9c0.3-0.3,0.9-0.3,1.2,0l6,5.4V3c0-0.8,1.4-0.8,1.4,0
			v5.3l4.7,4.2C27.6,13.3,26.2,14.6,25.3,13.9z"/>
	</g>
</g>
</svg>
