<?xml version="1.0" encoding="utf-8"?>
<!-- Generator: Adobe Illustrator 19.0.0, SVG Export Plug-In . SVG Version: 6.00 Build 0)  -->
<svg version="1.1" id="Capa_1" xmlns="http://www.w3.org/2000/svg" xmlns:xlink="http://www.w3.org/1999/xlink" x="0px" y="0px"
	 viewBox="0 0 28.2 31.2" style="enable-background:new 0 0 28.2 31.2;" xml:space="preserve">
<style type="text/css">
	.st0{fill:#FFFFFF;}
</style>
<path class="st0" d="M28.2,28.3c-0.8-5.6-4.8-10.2-10.2-11.7c4.3-2.1,6.1-7.4,4-11.7s-7.4-6.1-11.7-4s-6.1,7.4-4,11.7
	c0.9,1.7,2.3,3.1,4,4c-4.6,1.3-8.3,4.8-9.7,9.4c0,0.1-0.3,1.2-0.4,2.3c-0.1,0.7,0.1,1.5,0.5,2c0.4,0.5,1.1,0.9,1.8,0.9h23.4
	c0.7,0,1.4-0.4,1.8-0.9C28,29.8,28.3,29.1,28.2,28.3z M6.8,8.8c0-4,3.2-7.2,7.2-7.2s7.2,3.2,7.2,7.2c0,4-3.2,7.2-7.2,7.2
	C10.1,16,6.8,12.8,6.8,8.8z M26.4,29.3c-0.2,0.2-0.4,0.3-0.6,0.3H2.4c-0.2,0-0.5-0.1-0.6-0.3c-0.2-0.2-0.2-0.4-0.2-0.7
	c0.2-1.1,0.4-2,0.4-2c2.1-6.7,9.2-10.4,15.9-8.3c4.7,1.5,8.1,5.5,8.8,10.4C26.7,28.8,26.6,29.1,26.4,29.3z"/>
</svg>
